EL3111_4_20221111_13220034/0_Prelab/code/tp_3/simulation/qsim/mux_4to1_5bit.msim.vcd
$comment
	File created using the following command:
		vcd file mux_4to1_5bit.msim.vcd -direction
$end
$date
	Fri Nov 25 15:15:52 2022
$end
$version
	Questa Intel Starter FPGA Edition Version 2021.2
$end
$timescale
	1ps
$end

$scope module mux_4to1_5bit_vhd_vec_tst $end
$var wire 1 ! D1 [4] $end
$var wire 1 " D1 [3] $end
$var wire 1 # D1 [2] $end
$var wire 1 $ D1 [1] $end
$var wire 1 % D1 [0] $end
$var wire 1 & D2 [4] $end
$var wire 1 ' D2 [3] $end
$var wire 1 ( D2 [2] $end
$var wire 1 ) D2 [1] $end
$var wire 1 * D2 [0] $end
$var wire 1 + D3 [4] $end
$var wire 1 , D3 [3] $end
$var wire 1 - D3 [2] $end
$var wire 1 . D3 [1] $end
$var wire 1 / D3 [0] $end
$var wire 1 0 D4 [4] $end
$var wire 1 1 D4 [3] $end
$var wire 1 2 D4 [2] $end
$var wire 1 3 D4 [1] $end
$var wire 1 4 D4 [0] $end
$var wire 1 5 S [1] $end
$var wire 1 6 S [0] $end

$scope module i1 $end
$var wire 1 7 devoe $end
$var wire 1 8 ww_devoe $end
$var wire 1 9 ww_D1 [4] $end
$var wire 1 : ww_D1 [3] $end
$var wire 1 ; ww_D1 [2] $end
$var wire 1 < ww_D1 [1] $end
$var wire 1 = ww_D1 [0] $end
$var wire 1 > ww_D2 [4] $end
$var wire 1 ? ww_D2 [3] $end
$var wire 1 @ ww_D2 [2] $end
$var wire 1 A ww_D2 [1] $end
$var wire 1 B ww_D2 [0] $end
$var wire 1 C ww_D3 [4] $end
$var wire 1 D ww_D3 [3] $end
$var wire 1 E ww_D3 [2] $end
$var wire 1 F ww_D3 [1] $end
$var wire 1 G ww_D3 [0] $end
$var wire 1 H ww_D4 [4] $end
$var wire 1 I ww_D4 [3] $end
$var wire 1 J ww_D4 [2] $end
$var wire 1 K ww_D4 [1] $end
$var wire 1 L ww_D4 [0] $end
$var wire 1 M ww_S [1] $end
$var wire 1 N ww_S [0] $end
$var wire 1 O ww_Y [4] $end
$var wire 1 P ww_Y [3] $end
$var wire 1 Q ww_Y [2] $end
$var wire 1 R ww_Y [1] $end
$var wire 1 S ww_Y [0] $end
$var wire 1 T \D3[0]~input_o\ $end
$var wire 1 U \D4[0]~input_o\ $end
$var wire 1 V \S[1]~input_o\ $end
$var wire 1 W \D2[0]~input_o\ $end
$var wire 1 X \D1[0]~input_o\ $end
$var wire 1 Y \S[0]~input_o\ $end
$var wire 1 Z \Y[0]~0_combout\ $end
$var wire 1 [ \D1[1]~input_o\ $end
$var wire 1 \ \D2[1]~input_o\ $end
$var wire 1 ] \D4[1]~input_o\ $end
$var wire 1 ^ \D3[1]~input_o\ $end
$var wire 1 _ \Y[1]~1_combout\ $end
$var wire 1 ` \D3[2]~input_o\ $end
$var wire 1 a \D2[2]~input_o\ $end
$var wire 1 b \D4[2]~input_o\ $end
$var wire 1 c \D1[2]~input_o\ $end
$var wire 1 d \Y[2]~2_combout\ $end
$var wire 1 e \D3[3]~input_o\ $end
$var wire 1 f \D2[3]~input_o\ $end
$var wire 1 g \D1[3]~input_o\ $end
$var wire 1 h \D4[3]~input_o\ $end
$var wire 1 i \Y[3]~3_combout\ $end
$var wire 1 j \D1[4]~input_o\ $end
$var wire 1 k \D3[4]~input_o\ $end
$var wire 1 l \D4[4]~input_o\ $end
$var wire 1 m \D2[4]~input_o\ $end
$var wire 1 n \Y[4]~4_combout\ $end
$var wire 1 o \ALT_INV_S[1]~input_o\ $end
$var wire 1 p \ALT_INV_S[0]~input_o\ $end
$var wire 1 q \ALT_INV_D3[0]~input_o\ $end
$var wire 1 r \ALT_INV_D4[0]~input_o\ $end
$var wire 1 s \ALT_INV_D2[0]~input_o\ $end
$var wire 1 t \ALT_INV_D1[0]~input_o\ $end
$var wire 1 u \ALT_INV_D4[1]~input_o\ $end
$var wire 1 v \ALT_INV_D3[1]~input_o\ $end
$var wire 1 w \ALT_INV_D2[1]~input_o\ $end
$var wire 1 x \ALT_INV_D1[1]~input_o\ $end
$var wire 1 y \ALT_INV_D4[2]~input_o\ $end
$var wire 1 z \ALT_INV_D3[2]~input_o\ $end
$var wire 1 { \ALT_INV_D2[2]~input_o\ $end
$var wire 1 | \ALT_INV_D1[2]~input_o\ $end
$var wire 1 } \ALT_INV_D3[3]~input_o\ $end
$var wire 1 ~ \ALT_INV_D4[3]~input_o\ $end
$var wire 1 !! \ALT_INV_D1[3]~input_o\ $end
$var wire 1 "! \ALT_INV_D2[3]~input_o\ $end
$var wire 1 #! \ALT_INV_D4[4]~input_o\ $end
$var wire 1 $! \ALT_INV_D3[4]~input_o\ $end
$var wire 1 %! \ALT_INV_D1[4]~input_o\ $end
$var wire 1 &! \ALT_INV_D2[4]~input_o\ $end
$upscope $end
$upscope $end
$enddefinitions $end
#0
$dumpvars
17
18
1T
0U
0V
1W
0X
0Y
0Z
0[
0\
0]
1^
0_
1`
1a
0b
0c
0d
0e
0f
1g
0h
1i
1j
0k
0l
0m
1n
1o
1p
0q
1r
0s
1t
1u
0v
1w
1x
1y
0z
0{
1|
1}
1~
0!!
1"!
1#!
1$!
0%!
1&!
19
1:
0;
0<
0=
0>
0?
1@
0A
1B
0C
0D
1E
1F
1G
0H
0I
0J
0K
0L
0M
0N
1O
1P
0Q
0R
0S
1!
1"
0#
0$
0%
0&
0'
1(
0)
1*
0+
0,
1-
1.
1/
00
01
02
03
04
05
06
$end
#10000
0"
1#
1%
1&
11
12
13
16
1=
1;
0:
1>
1K
1J
1I
1N
1Y
1h
1b
1]
1m
0g
1c
1X
0p
0~
0y
0u
0&!
1!!
0|
0t
1Z
1d
0i
0P
1Q
1S
#20000
0%
0&
02
06
0!
1,
0-
0.
0/
10
15
0=
09
0>
0J
1H
0N
1M
0G
0F
0E
1D
1e
0`
0^
0T
1V
0Y
1l
0b
0m
0j
0X
0}
1z
1v
1q
0o
1p
0#!
1y
1&!
1%!
1t
0n
0Z
0d
1i
1P
0Q
0S
0O
#30000
1%
12
16
0,
1.
00
1"
0#
1)
0*
1+
14
1=
0;
1:
1L
1J
0H
1N
1F
0D
1C
0B
1A
1\
0W
1k
0e
1^
1Y
0l
1b
1U
1g
0c
1X
0w
1s
0$!
1}
0v
0p
1#!
0y
0r
0!!
1|
0t
1d
1Z
1_
1R
1S
1Q
#40000
06
1,
0.
10
1#
0+
1&
05
1$
1'
0N
0M
0F
1D
0C
1H
1<
1;
1?
1>
1m
1f
1c
1[
1l
0k
1e
0^
0V
0Y
0&!
0"!
0|
0x
0#!
1$!
0}
1v
1o
1p
#50000
16
1.
00
0#
1+
0&
0'
0%
1*
04
1N
1F
1C
0L
0H
0=
0;
1B
0?
0>
0m
0f
1W
0c
0X
0l
0U
1k
1^
1Y
1&!
1"!
0s
1|
1t
1#!
1r
0$!
0v
0p
0i
0P
#60000
06
10
0,
15
0$
02
0)
1!
1-
1/
01
03
0N
1M
0K
0J
0I
1H
1G
1E
0D
0<
19
0A
0\
1j
0[
0e
1`
1T
1l
0h
0b
0]
1V
0Y
1w
0%!
1x
1}
0z
0q
0#!
1~
1y
1u
0o
1p
1n
1O
#70000
16
1$
12
0!
0.
1&
1'
1%
14
0"
0(
1N
1=
1<
0:
09
1L
1J
0F
0@
1?
1>
1m
1f
0a
0^
1b
1U
0j
0g
1[
1X
1Y
0&!
0"!
1{
1v
0y
0r
1%!
1!!
0x
0t
0p
0_
0R
#80000
06
02
0'
0%
04
1"
05
1)
0/
11
1#
0*
0N
0M
0L
0J
1I
0B
1A
0?
0=
1;
1:
0G
0T
1g
1c
0X
0f
1\
0W
1h
0b
0U
0V
0Y
1q
0!!
0|
1t
1"!
0w
1s
0~
1y
1r
1o
1p
0n
1_
1i
0Z
0S
1P
1R
0O
#90000
16
0)
1/
01
0#
1*
1(
1N
1B
0A
1@
1G
0I
0;
0c
0h
1T
1a
0\
1W
1Y
1|
1~
0q
0{
1w
0s
0p
1n
0_
1Z
0i
0P
1S
0R
1O
#100000
06
0/
11
1#
0*
0(
1%
15
0$
1!
0&
13
0N
1M
0G
1K
1I
1=
0<
1;
19
0B
0@
0>
0m
0a
0W
1j
1c
0[
1X
1h
1]
0T
1V
0Y
1&!
1{
1s
0%!
0|
1x
0t
0~
0u
1q
0o
1p
0Z
0S
#110000
16
1/
01
0#
1(
0%
1$
0!
03
1)
1'
14
0"
1.
00
0-
1N
1G
1F
0E
1L
0K
0I
0H
0=
1<
0;
0:
09
1A
1@
1?
1f
1a
1\
0j
0g
0c
1[
0X
0l
0h
0]
1U
0`
1^
1T
1Y
0"!
0{
0w
1%!
1!!
1|
0x
1t
1#!
1~
1u
0r
1z
0v
0q
0p
1Z
0n
0d
0Q
0O
1S
#120000
06
0/
11
0(
13
0)
0'
04
1*
05
12
0N
0M
0G
0L
1K
1J
1I
1B
0A
0@
0?
0f
0a
0\
1W
1h
1b
1]
0U
0T
0V
0Y
1"!
1{
1w
0s
0~
0y
0u
1r
1q
1o
1p
0Z
1_
1R
0S
#130000
16
1/
1(
03
1'
14
0*
1"
0.
1-
1&
1N
1G
0F
1E
0B
1@
1?
1>
1L
0K
1:
1g
0]
1U
1m
1f
1a
0W
1`
0^
1T
1Y
0!!
1u
0r
0&!
0"!
0{
1s
0z
1v
0q
0p
1d
1n
0_
1i
1P
0R
1O
1Q
#140000
06
13
04
0-
0&
15
1#
10
1,
0+
0N
1M
0L
1K
1H
0E
1D
0C
0>
1;
1c
0m
0k
1e
0`
1l
1]
0U
1V
0Y
0|
1&!
1$!
0}
1z
0#!
0u
1r
0o
1p
1Z
0n
0d
0Q
0O
1S
#150000
16
03
1+
0/
0'
1*
1.
1)
1%
0$
1N
0K
0G
1F
1C
1B
1A
0?
1=
0<
0[
1X
0f
1\
1W
1k
1^
0T
0]
1Y
1x
0t
1"!
0w
0s
0$!
0v
1q
1u
0p
1d
1n
0Z
0S
1O
1Q
#160000
06
13
0+
0*
0.
0%
1-
1&
05
0#
0,
0"
1!
0N
0M
1K
0F
1E
0D
0C
0B
1>
0=
0;
0:
19
1j
0g
0c
0X
1m
0W
0k
0e
1`
0^
1]
0V
0Y
0%!
1!!
1|
1t
0&!
1s
1$!
1}
0z
1v
0u
1o
1p
0d
0i
0P
0Q
#170000
16
03
1%
0&
1#
1,
1/
0)
14
00
1N
1L
0K
0H
1=
1;
0A
0>
1G
1D
1e
1T
0m
0\
1c
1X
0l
0]
1U
1Y
0}
0q
1&!
1w
0|
0t
1#!
1u
0r
0p
1d
0n
0O
1Q
#180000
06
0%
0#
04
10
1*
1.
0-
15
1'
1$
0N
1M
0=
1<
0;
0L
1H
1B
1?
1F
0E
0`
1^
1f
1W
1l
0U
0c
1[
0X
1V
0Y
1z
0v
0"!
0s
0#!
1r
1|
0x
1t
0o
1p
1Z
1i
1_
0d
0Q
1R
1P
1S
#190000
16
14
00
0*
1-
0'
0$
1&
0,
0/
1"
0!
1N
1L
0H
0B
0?
1>
0G
1E
0D
0<
1:
09
0j
1g
0[
0e
1`
0T
1m
0f
0W
0l
1U
1Y
1%!
0!!
1x
1}
0z
1q
0&!
1"!
1s
1#!
0r
0p
1d
0_
0R
1Q
#200000
06
0"
1!
1%
1#
0.
05
13
1)
1+
0(
01
02
0N
0M
1=
1;
0:
19
0F
1C
1K
0J
0I
1A
0@
0a
1\
0h
0b
1]
1k
0^
1j
0g
1c
1X
0V
0Y
1{
0w
1~
1y
0u
0$!
1v
0%!
1!!
0|
0t
1o
1p
1n
0i
0P
1O
#210000
16
1"
0!
0%
03
0+
1(
04
10
1*
1,
1N
0=
1:
09
0L
0K
1H
1D
0C
1B
1@
1a
1W
0k
1e
1l
0]
0U
0j
1g
0X
1Y
0{
0s
1$!
0}
0#!
1u
1r
1%!
0!!
1t
0p
1_
1R
#220000
06
0"
1!
1%
1+
0(
14
15
0)
11
12
0&
1/
0N
1M
1=
0:
19
1G
1C
0A
0@
0>
1L
1J
1I
1h
1b
1U
0m
0a
0\
1k
1T
1j
0g
1X
1V
0Y
0~
0y
0r
1&!
1{
1w
0$!
0q
0%!
1!!
0t
0o
1p
0_
1i
1P
0R
#230000
16
0+
1)
01
1&
0/
00
0,
1.
0-
1'
1N
0G
1F
0E
0D
0C
1A
1?
1>
0I
0H
0l
0h
1m
1f
1\
0k
0e
0`
1^
0T
1Y
1#!
1~
0&!
0"!
0w
1$!
1}
1z
0v
1q
0p
0i
0n
0O
0P
#240000
06
1+
11
1/
1,
0.
1-
0'
1"
0%
1(
04
05
02
13
0*
0#
1$
0N
0M
1G
0F
1E
1D
1C
0L
1K
0J
1I
0B
1@
0?
0=
1<
0;
1:
1g
0c
1[
0X
0f
1a
0W
1h
0b
1]
0U
1k
1e
1`
0^
1T
0V
0Y
0!!
1|
0x
1t
1"!
0{
1s
0~
1y
0u
1r
0$!
0}
0z
1v
0q
1o
1p
1n
0Z
1_
0d
1i
1P
0Q
1R
0S
1O
#250000
16
0/
1%
14
1*
0&
10
1N
0G
1=
1L
1H
1B
0>
0m
1W
1l
1U
1X
0T
1Y
1&!
0s
0#!
0r
0t
1q
0p
1d
0i
1Z
0n
0O
1S
0P
1Q
#260000
06
04
1&
01
1'
15
1#
0$
0N
1M
0L
0I
1?
1>
0<
1;
1c
0[
1m
1f
0h
0U
1V
0Y
0|
1x
0&!
0"!
1~
1r
0o
1p
0Z
1i
1n
0_
0R
1O
1P
0S
#270000
16
0&
0'
1$
1/
0*
0+
0-
0"
12
03
0)
0!
1N
0B
0A
0?
0>
1<
0:
09
1G
0E
0C
0K
1J
1b
0]
0k
0`
1T
0j
0g
1[
0m
0f
0\
0W
1Y
0y
1u
1$!
1z
0q
1%!
1!!
0x
1&!
1"!
1w
1s
0p
0i
0P
#280000
06
1+
1-
13
1!
14
05
0%
0,
0(
0N
0M
1E
0D
1C
1L
1K
0=
19
0@
0a
1j
0X
1]
1U
1k
0e
1`
0V
0Y
1{
0%!
1t
0u
0r
0$!
1}
0z
1o
1p
1_
1R
#290000
16
0+
0-
03
04
1%
1,
1(
1&
0$
02
11
0#
1.
1N
1F
0E
1D
0C
0L
0K
0J
1I
1=
0<
0;
1@
1>
1m
1a
0c
0[
1X
1h
0b
0]
0U
0k
1e
0`
1^
1Y
0&!
0{
1|
1x
0t
0~
1y
1u
1r
1$!
0}
1z
0v
0p
0_
0R
#300000
06
1$
01
1#
15
1'
0/
1"
00
0N
1M
1<
1;
1:
0I
0H
1?
0G
0T
1f
0l
0h
1g
1c
1[
1V
0Y
1q
0"!
1#!
1~
0!!
0|
0x
0o
1p
1_
0d
0n
1i
1P
0O
0Q
1R
#310000
16
11
0'
10
1+
13
14
0,
0(
12
0!
1)
1N
1L
1K
1J
1I
1H
1A
0@
0?
0D
1C
09
0j
1k
0e
0f
0a
1\
1l
1h
1b
1]
1U
1Y
1%!
0$!
1}
1"!
1{
0w
0#!
0~
0y
0u
0r
0p
1Z
1d
1n
1O
1Q
1S
#320000
06
01
0+
04
1!
0)
05
1/
0%
0.
1*
0N
0M
0L
0I
1G
0F
0C
0=
19
1B
0A
0\
1W
1j
0X
0k
0^
1T
0h
0U
0V
0Y
1w
0s
0%!
1t
1$!
1v
0q
1~
1r
1o
1p
0Z
0S
#330000
16
0!
1%
1.
0*
1'
1,
0$
0"
1-
1N
1=
0<
0:
09
1F
1E
1D
0B
1?
1f
0W
1e
1`
1^
0j
0g
0[
1X
1Y
0"!
1s
0}
0z
0v
1%!
1!!
1x
0t
0p
0_
0d
0Q
0R
#340000
06
1!
0%
0.
0'
0-
11
15
0/
03
1(
02
0N
1M
0=
19
0G
0F
0E
1@
0?
0K
0J
1I
1h
0b
0]
0f
1a
0`
0^
0T
1j
0X
1V
0Y
0~
1y
1u
1"!
0{
1z
1v
1q
0%!
1t
0o
1p
0n
0O
#350000
16
1'
1-
1/
1*
1"
14
00
1N
1B
1?
1G
1E
1:
1L
0H
0l
1U
1g
1`
1T
1f
1W
1Y
1#!
0r
0!!
0z
0q
0"!
0s
0p
1Z
1S
#360000
06
0*
0"
04
0!
1%
1.
01
05
13
12
1)
0N
0M
0B
1A
1=
0:
09
0L
1K
1J
0I
1F
1^
0h
1b
1]
0U
0j
0g
1X
1\
0W
0V
0Y
0v
1~
0y
0u
1r
1%!
1!!
0t
0w
1s
1o
1p
1d
0i
0P
1Q
#370000
16
1*
0%
0.
0-
10
1$
1+
0#
1N
1B
0=
1<
0;
0F
0E
1C
1H
1l
1k
0`
0^
0c
1[
0X
1W
1Y
0#!
0$!
1z
1v
1|
0x
1t
0s
0p
1i
1_
1n
1O
1R
1P
#380000
06
1%
1.
00
1#
15
0)
0/
0(
0&
0N
1M
1=
1;
0G
1F
0H
0A
0@
0>
0m
0a
0\
0l
1^
0T
1c
1X
1V
0Y
1&!
1{
1w
1#!
0v
1q
0|
0t
0o
1p
0Z
0d
0Q
0S
#390000
16
10
0#
1)
1/
1(
1-
0$
1!
03
0'
1N
0K
1H
0<
0;
19
1A
1@
0?
1G
1E
1`
1T
0f
1a
1\
1j
0c
0[
1l
0]
1Y
0z
0q
1"!
0{
0w
0%!
1|
1x
0#!
1u
0p
0_
0i
1d
1Q
0P
0R
#400000
06
1#
0)
0-
1$
1'
0.
05
14
11
0,
0N
0M
1<
1;
0A
1?
0F
0E
0D
1L
1I
1h
1U
0e
0`
0^
1f
0\
1c
1[
0V
0Y
0~
0r
1}
1z
1v
0"!
1w
0|
0x
1o
1p
1_
1Z
1S
1R
#410000
16
0'
04
01
0(
0!
0*
0+
02
1N
0B
0@
0?
0L
0J
0I
09
0C
0k
0j
0h
0b
0U
0f
0a
0W
1Y
1$!
1%!
1~
1y
1r
1"!
1{
1s
0p
0_
0Z
0d
0n
0O
0Q
0S
0R
#420000
06
1'
14
1(
12
0#
1)
1-
0$
1.
15
1,
1&
0N
1M
1A
1@
1?
1>
1L
1J
0<
0;
1F
1E
1D
1e
1`
1^
0c
0[
1b
1U
1m
1f
1a
1\
1V
0Y
0}
0z
0v
1|
1x
0y
0r
0&!
0"!
0{
0w
0o
1p
1Z
1_
1d
1i
1P
1Q
1R
1S
#430000
16
04
0)
0-
1$
0.
0,
00
0/
1"
1N
0L
0H
0A
0G
0F
0E
0D
1<
1:
1g
1[
0e
0`
0^
0T
0\
0l
0U
1Y
0!!
0x
1}
1z
1v
1q
1w
1#!
1r
0p
0Z
0_
0i
0P
0R
0S
#440000
06
14
0$
10
0"
0(
02
05
0&
1!
1*
13
0N
0M
1L
1K
0J
1H
0<
0:
19
1B
0@
0>
0m
0a
1W
1j
0g
0[
1l
0b
1]
1U
0V
0Y
1&!
1{
0s
0%!
1!!
1x
0#!
1y
0u
0r
1o
1p
1Z
0d
1n
1O
0Q
1S
#450000
16
1$
00
1"
1(
12
1&
1)
1/
1N
1<
1:
1J
0H
1A
1@
1>
1G
1T
1m
1a
1\
0l
1b
1g
1[
1Y
0q
0&!
0{
0w
1#!
0y
0!!
0x
0p
1i
1_
1d
1Q
1R
1P
#460000
06
0$
10
0"
02
0/
04
15
0*
03
1-
1.
1,
0'
1#
11
1+
0N
1M
0<
1;
0:
0L
0K
0J
1I
1H
0G
1F
1E
1D
1C
0B
0?
0f
0W
1k
1e
1`
1^
0T
1l
1h
0b
0]
0U
0g
1c
0[
1V
0Y
1"!
1s
0$!
0}
0z
0v
1q
0#!
0~
1y
1u
1r
1!!
0|
1x
0o
1p
0Z
0S
#470000
16
1$
1"
12
1/
1*
13
0-
0.
0,
1'
0#
01
0&
0)
0%
1N
0=
1<
0;
1:
1K
1J
0I
1G
0F
0E
0D
1B
0A
1?
0>
0m
1f
0\
1W
0e
0`
0^
1T
0h
1b
1]
1g
0c
1[
0X
1Y
1&!
0"!
1w
0s
1}
1z
1v
0q
1~
0y
0u
0!!
1|
0x
1t
0p
0i
0P
#480000
06
0"
0/
0*
1-
1.
1#
00
05
0(
0N
0M
1;
0:
0G
1F
1E
0B
0@
0H
0l
0a
0W
1`
1^
0T
0g
1c
0V
0Y
1#!
1{
1s
0z
0v
1q
1!!
0|
1o
1p
#490000
16
1/
0#
0$
03
0'
11
1&
1)
14
0+
0!
1N
1G
0C
0<
0;
09
1L
0K
1I
1A
0?
1>
1m
0f
1\
1h
0]
1U
0j
0c
0[
0k
1T
1Y
0&!
1"!
0w
0~
1u
0r
1%!
1|
1x
1$!
0q
0p
0d
0Q
#500000
06
13
0)
04
1!
1*
0-
0.
15
1(
02
1%
0N
1M
0L
1K
0J
1B
0A
1@
1=
19
0F
0E
0`
0^
1j
1X
1a
0\
1W
0b
1]
0U
1V
0Y
1z
1v
0%!
0t
0{
1w
0s
1y
0u
1r
0o
1p
1Z
0n
0_
0R
0O
1S
#510000
16
14
0*
1.
0(
1$
01
1+
1,
1N
1L
0I
0B
0@
1F
1D
1C
1<
1[
1k
1e
1^
0a
0W
0h
1U
1Y
0x
0$!
0}
0v
1{
1s
1~
0r
0p
1_
1R
#520000
06
04
1(
03
1)
0!
05
0%
0/
0&
0N
0M
0L
0K
1A
1@
0>
0=
09
0G
0T
0j
0X
0m
1a
1\
0]
0U
0V
0Y
1q
1%!
1t
1&!
0{
0w
1u
1r
1o
1p
0Z
0S
#530000
16
14
0(
1%
1/
1&
1*
0.
0$
11
0+
0,
1-
12
1"
10
1N
1L
1J
1I
1H
1B
0@
1>
1=
0<
1:
1G
0F
1E
0D
0C
0k
0e
1`
0^
1T
1g
0[
1X
1m
0a
1W
1l
1h
1b
1U
1Y
1$!
1}
0z
1v
0q
0!!
1x
0t
0&!
1{
0s
0#!
0~
0y
0r
0p
1Z
1n
1O
1S
#540000
06
04
0%
0/
0*
01
1+
02
0"
00
13
15
1#
1'
0N
1M
0L
1K
0J
0I
0H
0=
1;
0:
0G
1C
0B
1?
1f
0W
1k
0T
0g
1c
0X
0l
0h
0b
1]
0U
1V
0Y
0"!
1s
0$!
1q
1!!
0|
1t
1#!
1~
1y
0u
1r
0o
1p
0_
1d
0Z
0S
1Q
0R
#550000
16
14
1%
1"
10
03
0&
0)
1N
1L
0K
1H
1=
1:
0A
0>
0m
0\
1g
1X
1l
0]
1U
1Y
1&!
1w
0!!
0t
0#!
1u
0r
0p
0d
1Z
1S
0Q
#560000
06
0%
0"
13
1/
1*
11
12
05
1,
0N
0M
0=
0:
1K
1J
1I
1G
1D
1B
1W
1e
1T
1h
1b
1]
0g
0X
0V
0Y
0s
0}
0q
0~
0y
0u
1!!
1t
1o
1p
0n
1d
0Z
0S
1Q
0O
#570000
16
1)
1.
1$
0-
1!
1N
1A
1F
0E
1<
19
1j
1[
0`
1^
1\
1Y
0%!
0x
1z
0v
0w
0p
1Z
1i
0d
1_
1R
0Q
1P
1S
#580000
06
0)
0.
1-
1%
1"
02
15
04
0N
1M
0A
0F
1E
1=
1:
0L
0J
0b
0U
1g
1X
1`
0^
0\
1V
0Y
1y
1r
0!!
0t
0z
1v
1w
0o
1p
1n
0_
1d
1Q
0R
1O
#590000
16
1.
0-
0"
12
0$
03
0*
01
1(
1N
1F
0E
0<
0:
0K
1J
0I
0B
1@
1a
0W
0h
1b
0]
0g
0[
0`
1^
1Y
0{
1s
1~
0y
1u
1!!
1x
1z
0v
0p
0i
0Z
0S
0P
#600000
06
1"
11
0(
0%
05
0/
0#
0N
0M
0=
0;
1:
1I
0@
0G
0T
0a
1h
1g
0c
0X
0V
0Y
1q
1{
0~
0!!
1|
1t
1o
1p
1i
0d
0Q
1P
#610000
16
0"
1(
1%
0.
02
1$
1)
14
0!
00
1N
1=
1<
0:
09
1A
1@
0F
1L
0J
0H
0l
0b
1U
0^
1a
1\
0j
0g
1[
1X
1Y
1#!
1y
0r
1v
0{
0w
1%!
1!!
0x
0t
0p
1_
1d
0n
0O
1Q
1R
#620000
06
1"
0(
1.
12
04
10
01
15
1#
13
0+
0'
0N
1M
1;
1:
0@
0?
1F
0C
0L
1K
1J
0I
1H
1l
0h
1b
1]
0U
0k
1^
0f
0a
1g
1c
1V
0Y
0#!
1~
0y
0u
1r
1$!
0v
1"!
1{
0!!
0|
0o
1p
0d
0Q
#630000
16
0"
02
0#
0$
0)
1&
1N
0<
0;
0:
0J
0A
1>
1m
0\
0b
0g
0c
0[
1Y
0&!
1w
1y
1!!
1|
1x
0p
0i
1n
1O
0P
#640000
06
1"
12
1#
0&
1(
0.
00
11
05
1'
0%
1!
1/
1*
0N
0M
0=
1;
1:
19
1J
1I
0H
1B
1@
1?
0>
1G
0F
0^
1T
0m
1f
1a
1W
0l
1h
1b
1j
1g
1c
0X
0V
0Y
1v
0q
1&!
0"!
0{
0s
1#!
0~
0y
0%!
0!!
0|
1t
1o
1p
1d
1i
0_
0R
1P
1Q
#650000
16
0"
0#
0(
0!
1)
14
03
1N
0;
0:
09
1A
0@
1L
0K
0]
1U
0a
1\
0j
0g
0c
1Y
1u
0r
1{
0w
1%!
1!!
1|
0p
0n
0d
1Z
1_
1R
1S
0Q
0O
#660000
06
1"
0)
04
13
02
01
15
0N
1M
1:
0A
0L
1K
0J
0I
0h
0b
1]
0U
0\
1g
1V
0Y
1~
1y
0u
1r
1w
0!!
0o
1p
0_
0R
#670000
16
1)
12
11
1#
1!
1.
10
1%
1$
1+
1-
0,
1N
1A
1J
1I
1H
1=
1<
1;
19
1F
1E
0D
1C
1k
0e
1`
1^
1j
1c
1[
1X
1l
1h
1b
1\
1Y
0$!
1}
0z
0v
0%!
0|
0x
0t
0#!
0~
0y
0w
0p
0Z
1_
1d
1n
1O
1Q
1R
0S
#680000
06
0)
01
0#
0.
00
0%
1,
0"
14
05
1&
0'
0N
0M
0A
0?
1>
1L
0I
0H
0=
0;
0:
0F
1D
1e
0^
0g
0c
0X
0l
0h
1U
1m
0f
0\
0V
0Y
0}
1v
1!!
1|
1t
1#!
1~
0r
0&!
1"!
1w
1o
1p
0d
0i
0P
0Q
#690000
16
11
1%
0,
02
0!
0+
0-
03
1(
1N
0K
0J
1I
1=
09
0E
0D
0C
1@
1a
0k
0e
0`
0j
1X
1h
0b
0]
1Y
0{
1$!
1}
1z
1%!
0t
0~
1y
1u
0p
0_
1Z
1d
1Q
1S
0R
#700000
06
01
1!
0(
1)
1#
1.
10
15
0&
0/
0N
1M
0I
1H
1;
19
1A
0@
0>
0G
1F
1^
0T
0m
0a
1\
1j
1c
1l
0h
1V
0Y
0v
1q
1&!
1{
0w
0%!
0|
0#!
1~
0o
1p
0d
0n
0Z
1_
1R
0S
0O
0Q
#710000
16
11
0!
1(
0)
0%
1,
1-
04
1'
0*
1N
0L
1I
0=
09
0B
0A
1@
1?
1E
1D
1e
1`
1f
1a
0\
0W
0j
0X
1h
0U
1Y
0}
0z
0"!
0{
1w
1s
1%!
1t
0~
1r
0p
1n
0_
1i
1P
0R
1O
#720000
06
01
1!
0(
0,
0.
05
1/
12
13
1"
0$
0N
0M
1K
1J
0I
0<
1:
19
0@
1G
0F
0D
0e
0^
1T
0a
1j
1g
0[
0h
1b
1]
0V
0Y
1}
1v
0q
1{
0%!
0!!
1x
1~
0y
0u
1o
1p
1d
1Q
#730000
16
11
1(
02
0"
1$
1%
14
0'
00
1N
1L
0J
1I
0H
1@
0?
1=
1<
0:
0g
1[
1X
0f
1a
0l
1h
0b
1U
1Y
1!!
0x
0t
1"!
0{
1#!
0~
1y
0r
0p
0n
0i
0P
0O
#740000
06
12
1"
0%
04
1'
0!
1,
15
0/
1)
0-
1*
0N
1M
0L
1J
0=
1:
09
1B
1A
1?
0G
0E
1D
1e
0`
0T
1f
1\
1W
0j
1g
0X
1b
0U
1V
0Y
0}
1z
1q
0"!
0w
0s
1%!
0!!
1t
0y
1r
0o
1p
0d
1i
1P
0Q
#750000
16
0"
14
0'
1!
0,
1/
1-
01
0(
0$
0#
1&
1N
0<
0;
0:
19
1L
0I
0@
0?
1>
1G
1E
0D
0e
1`
1T
1m
0f
0a
0h
1U
1j
0g
0c
0[
1Y
1}
0z
0q
0&!
1"!
1{
1~
0r
0%!
1!!
1|
1x
0p
1_
1Z
1d
0i
0P
1Q
1S
1R
#760000
06
04
0!
1,
0-
11
02
1%
05
0)
0*
10
1.
0N
0M
0L
0J
1I
1H
1=
09
1F
0E
1D
0B
0A
0\
0W
1e
0`
1^
0j
1X
1l
1h
0b
0U
0V
0Y
1w
1s
0}
1z
0v
1%!
0t
0#!
0~
1y
1r
1o
1p
0d
0_
0R
0Q
#770000
16
14
1!
1*
0/
1(
1+
1N
1L
19
1B
1@
0G
1C
1k
0T
1a
1W
1j
1U
1Y
0$!
1q
0{
0s
0%!
0r
0p
1d
1n
1O
1Q
#780000
06
0*
1/
0(
0,
01
15
1)
00
1"
1'
1$
1#
0&
0N
1M
0B
1A
0@
1?
0>
1G
0D
0I
0H
1<
1;
1:
1g
1c
1[
0l
0h
0e
1T
0m
1f
0a
1\
0W
1V
0Y
0!!
0|
0x
1#!
1~
1}
0q
1&!
0"!
1{
0w
1s
0o
1p
1_
0d
0Q
1R
#790000
16
1*
0/
1(
11
0"
0'
1&
04
0!
1-
12
03
1N
1B
1@
0?
1>
0G
1E
0L
0K
1J
1I
0:
09
0j
0g
1h
1b
0]
0U
1`
0T
1m
0f
1a
1W
1Y
1%!
1!!
0~
0y
1u
1r
0z
1q
0&!
1"!
0{
0s
0p
0Z
0_
1d
1i
0n
0O
1P
1Q
0R
0S
#800000
06
0*
1/
0&
1!
0-
02
05
0)
10
0$
0#
0%
0N
0M
0B
0A
0>
1G
0E
0=
0<
0;
19
0J
1H
1l
0b
1j
0c
0[
0X
0`
1T
0m
0\
0W
0V
0Y
0#!
1y
0%!
1|
1x
1t
1z
0q
1&!
1w
1s
1o
1p
0i
0d
1n
1O
0Q
0P
