EL3111_4_20221111_13220034/0_Prelab/code/tp_5/simulation/qsim/bus_merger.msim.vcd
$comment
	File created using the following command:
		vcd file bus_merger.msim.vcd -direction
$end
$date
	Fri Nov 25 15:28:06 2022
$end
$version
	Questa Intel Starter FPGA Edition Version 2021.2
$end
$timescale
	1ps
$end

$scope module bus_merger_vhd_vec_tst $end
$var wire 1 ! DATA_IN1 [3] $end
$var wire 1 " DATA_IN1 [2] $end
$var wire 1 # DATA_IN1 [1] $end
$var wire 1 $ DATA_IN1 [0] $end
$var wire 1 % DATA_IN2 [27] $end
$var wire 1 & DATA_IN2 [26] $end
$var wire 1 ' DATA_IN2 [25] $end
$var wire 1 ( DATA_IN2 [24] $end
$var wire 1 ) DATA_IN2 [23] $end
$var wire 1 * DATA_IN2 [22] $end
$var wire 1 + DATA_IN2 [21] $end
$var wire 1 , DATA_IN2 [20] $end
$var wire 1 - DATA_IN2 [19] $end
$var wire 1 . DATA_IN2 [18] $end
$var wire 1 / DATA_IN2 [17] $end
$var wire 1 0 DATA_IN2 [16] $end
$var wire 1 1 DATA_IN2 [15] $end
$var wire 1 2 DATA_IN2 [14] $end
$var wire 1 3 DATA_IN2 [13] $end
$var wire 1 4 DATA_IN2 [12] $end
$var wire 1 5 DATA_IN2 [11] $end
$var wire 1 6 DATA_IN2 [10] $end
$var wire 1 7 DATA_IN2 [9] $end
$var wire 1 8 DATA_IN2 [8] $end
$var wire 1 9 DATA_IN2 [7] $end
$var wire 1 : DATA_IN2 [6] $end
$var wire 1 ; DATA_IN2 [5] $end
$var wire 1 < DATA_IN2 [4] $end
$var wire 1 = DATA_IN2 [3] $end
$var wire 1 > DATA_IN2 [2] $end
$var wire 1 ? DATA_IN2 [1] $end
$var wire 1 @ DATA_IN2 [0] $end
$var wire 1 A DATA_OUT [31] $end
$var wire 1 B DATA_OUT [30] $end
$var wire 1 C DATA_OUT [29] $end
$var wire 1 D DATA_OUT [28] $end
$var wire 1 E DATA_OUT [27] $end
$var wire 1 F DATA_OUT [26] $end
$var wire 1 G DATA_OUT [25] $end
$var wire 1 H DATA_OUT [24] $end
$var wire 1 I DATA_OUT [23] $end
$var wire 1 J DATA_OUT [22] $end
$var wire 1 K DATA_OUT [21] $end
$var wire 1 L DATA_OUT [20] $end
$var wire 1 M DATA_OUT [19] $end
$var wire 1 N DATA_OUT [18] $end
$var wire 1 O DATA_OUT [17] $end
$var wire 1 P DATA_OUT [16] $end
$var wire 1 Q DATA_OUT [15] $end
$var wire 1 R DATA_OUT [14] $end
$var wire 1 S DATA_OUT [13] $end
$var wire 1 T DATA_OUT [12] $end
$var wire 1 U DATA_OUT [11] $end
$var wire 1 V DATA_OUT [10] $end
$var wire 1 W DATA_OUT [9] $end
$var wire 1 X DATA_OUT [8] $end
$var wire 1 Y DATA_OUT [7] $end
$var wire 1 Z DATA_OUT [6] $end
$var wire 1 [ DATA_OUT [5] $end
$var wire 1 \ DATA_OUT [4] $end
$var wire 1 ] DATA_OUT [3] $end
$var wire 1 ^ DATA_OUT [2] $end
$var wire 1 _ DATA_OUT [1] $end
$var wire 1 ` DATA_OUT [0] $end

$scope module i1 $end
$var wire 1 a devoe $end
$var wire 1 b ww_devoe $end
$var wire 1 c ww_DATA_IN1 [3] $end
$var wire 1 d ww_DATA_IN1 [2] $end
$var wire 1 e ww_DATA_IN1 [1] $end
$var wire 1 f ww_DATA_IN1 [0] $end
$var wire 1 g ww_DATA_IN2 [27] $end
$var wire 1 h ww_DATA_IN2 [26] $end
$var wire 1 i ww_DATA_IN2 [25] $end
$var wire 1 j ww_DATA_IN2 [24] $end
$var wire 1 k ww_DATA_IN2 [23] $end
$var wire 1 l ww_DATA_IN2 [22] $end
$var wire 1 m ww_DATA_IN2 [21] $end
$var wire 1 n ww_DATA_IN2 [20] $end
$var wire 1 o ww_DATA_IN2 [19] $end
$var wire 1 p ww_DATA_IN2 [18] $end
$var wire 1 q ww_DATA_IN2 [17] $end
$var wire 1 r ww_DATA_IN2 [16] $end
$var wire 1 s ww_DATA_IN2 [15] $end
$var wire 1 t ww_DATA_IN2 [14] $end
$var wire 1 u ww_DATA_IN2 [13] $end
$var wire 1 v ww_DATA_IN2 [12] $end
$var wire 1 w ww_DATA_IN2 [11] $end
$var wire 1 x ww_DATA_IN2 [10] $end
$var wire 1 y ww_DATA_IN2 [9] $end
$var wire 1 z ww_DATA_IN2 [8] $end
$var wire 1 { ww_DATA_IN2 [7] $end
$var wire 1 | ww_DATA_IN2 [6] $end
$var wire 1 } ww_DATA_IN2 [5] $end
$var wire 1 ~ ww_DATA_IN2 [4] $end
$var wire 1 !! ww_DATA_IN2 [3] $end
$var wire 1 "! ww_DATA_IN2 [2] $end
$var wire 1 #! ww_DATA_IN2 [1] $end
$var wire 1 $! ww_DATA_IN2 [0] $end
$var wire 1 %! ww_DATA_OUT [31] $end
$var wire 1 &! ww_DATA_OUT [30] $end
$var wire 1 '! ww_DATA_OUT [29] $end
$var wire 1 (! ww_DATA_OUT [28] $end
$var wire 1 )! ww_DATA_OUT [27] $end
$var wire 1 *! ww_DATA_OUT [26] $end
$var wire 1 +! ww_DATA_OUT [25] $end
$var wire 1 ,! ww_DATA_OUT [24] $end
$var wire 1 -! ww_DATA_OUT [23] $end
$var wire 1 .! ww_DATA_OUT [22] $end
$var wire 1 /! ww_DATA_OUT [21] $end
$var wire 1 0! ww_DATA_OUT [20] $end
$var wire 1 1! ww_DATA_OUT [19] $end
$var wire 1 2! ww_DATA_OUT [18] $end
$var wire 1 3! ww_DATA_OUT [17] $end
$var wire 1 4! ww_DATA_OUT [16] $end
$var wire 1 5! ww_DATA_OUT [15] $end
$var wire 1 6! ww_DATA_OUT [14] $end
$var wire 1 7! ww_DATA_OUT [13] $end
$var wire 1 8! ww_DATA_OUT [12] $end
$var wire 1 9! ww_DATA_OUT [11] $end
$var wire 1 :! ww_DATA_OUT [10] $end
$var wire 1 ;! ww_DATA_OUT [9] $end
$var wire 1 <! ww_DATA_OUT [8] $end
$var wire 1 =! ww_DATA_OUT [7] $end
$var wire 1 >! ww_DATA_OUT [6] $end
$var wire 1 ?! ww_DATA_OUT [5] $end
$var wire 1 @! ww_DATA_OUT [4] $end
$var wire 1 A! ww_DATA_OUT [3] $end
$var wire 1 B! ww_DATA_OUT [2] $end
$var wire 1 C! ww_DATA_OUT [1] $end
$var wire 1 D! ww_DATA_OUT [0] $end
$var wire 1 E! \DATA_IN2[0]~input_o\ $end
$var wire 1 F! \DATA_IN2[1]~input_o\ $end
$var wire 1 G! \DATA_IN2[2]~input_o\ $end
$var wire 1 H! \DATA_IN2[3]~input_o\ $end
$var wire 1 I! \DATA_IN2[4]~input_o\ $end
$var wire 1 J! \DATA_IN2[5]~input_o\ $end
$var wire 1 K! \DATA_IN2[6]~input_o\ $end
$var wire 1 L! \DATA_IN2[7]~input_o\ $end
$var wire 1 M! \DATA_IN2[8]~input_o\ $end
$var wire 1 N! \DATA_IN2[9]~input_o\ $end
$var wire 1 O! \DATA_IN2[10]~input_o\ $end
$var wire 1 P! \DATA_IN2[11]~input_o\ $end
$var wire 1 Q! \DATA_IN2[12]~input_o\ $end
$var wire 1 R! \DATA_IN2[13]~input_o\ $end
$var wire 1 S! \DATA_IN2[14]~input_o\ $end
$var wire 1 T! \DATA_IN2[15]~input_o\ $end
$var wire 1 U! \DATA_IN2[16]~input_o\ $end
$var wire 1 V! \DATA_IN2[17]~input_o\ $end
$var wire 1 W! \DATA_IN2[18]~input_o\ $end
$var wire 1 X! \DATA_IN2[19]~input_o\ $end
$var wire 1 Y! \DATA_IN2[20]~input_o\ $end
$var wire 1 Z! \DATA_IN2[21]~input_o\ $end
$var wire 1 [! \DATA_IN2[22]~input_o\ $end
$var wire 1 \! \DATA_IN2[23]~input_o\ $end
$var wire 1 ]! \DATA_IN2[24]~input_o\ $end
$var wire 1 ^! \DATA_IN2[25]~input_o\ $end
$var wire 1 _! \DATA_IN2[26]~input_o\ $end
$var wire 1 `! \DATA_IN2[27]~input_o\ $end
$var wire 1 a! \DATA_IN1[0]~input_o\ $end
$var wire 1 b! \DATA_IN1[1]~input_o\ $end
$var wire 1 c! \DATA_IN1[2]~input_o\ $end
$var wire 1 d! \DATA_IN1[3]~input_o\ $end
$upscope $end
$upscope $end
$enddefinitions $end
#0
$dumpvars
1a
1b
0E!
1F!
0G!
1H!
1I!
1J!
1K!
0L!
0M!
1N!
1O!
1P!
0Q!
0R!
1S!
1T!
0U!
1V!
0W!
0X!
1Y!
0Z!
0[!
0\!
0]!
0^!
0_!
0`!
1a!
1b!
0c!
1d!
1!
0"
1#
1$
0%
0&
0'
0(
0)
0*
0+
1,
0-
0.
1/
00
11
12
03
04
15
16
17
08
09
1:
1;
1<
1=
0>
1?
0@
1c
0d
1e
1f
0g
0h
0i
0j
0k
0l
0m
1n
0o
0p
1q
0r
1s
1t
0u
0v
1w
1x
1y
0z
0{
1|
1}
1~
1!!
0"!
1#!
0$!
1%!
0&!
1'!
1(!
0)!
0*!
0+!
0,!
0-!
0.!
0/!
10!
01!
02!
13!
04!
15!
16!
07!
08!
19!
1:!
1;!
0<!
0=!
1>!
1?!
1@!
1A!
0B!
1C!
0D!
1A
0B
1C
1D
0E
0F
0G
0H
0I
0J
0K
1L
0M
0N
1O
0P
1Q
1R
0S
0T
1U
1V
1W
0X
0Y
1Z
1[
1\
1]
0^
1_
0`
$end
#5000
1"
0#
1%
1'
1*
1+
1.
10
01
02
14
05
06
0:
0<
0=
1>
0?
0e
1d
0#!
1"!
0!!
0~
0|
0x
0w
1v
0t
0s
1r
1p
1m
1l
1i
1g
1`!
1^!
1[!
1Z!
1W!
1U!
0T!
0S!
1Q!
0P!
0O!
0K!
0I!
0H!
1G!
0F!
1c!
0b!
0'!
1&!
0C!
1B!
0A!
0@!
0>!
0:!
09!
18!
06!
05!
14!
12!
1/!
1.!
1+!
1)!
0_
1^
0]
0\
0Z
0V
0U
1T
0R
0Q
1P
1N
1K
1J
1G
1E
0C
1B
#10000
0"
0%
0+
0.
04
16
1:
1<
0>
1?
0,
0;
1@
0d
1$!
1#!
0"!
1~
0}
1|
1x
0v
0p
0n
0m
0g
0`!
0Z!
0Y!
0W!
0Q!
1O!
1K!
0J!
1I!
0G!
1F!
1E!
0c!
0&!
1D!
1C!
0B!
1@!
0?!
1>!
1:!
08!
02!
00!
0/!
0)!
1`
1_
0^
1\
0[
1Z
1V
0T
0N
0L
0K
0E
0B
#15000
1"
1%
1+
1>
1,
0'
00
11
15
1=
1-
18
19
1d
1"!
1!!
1{
1z
1w
1s
0r
1o
1n
1m
0i
1g
1`!
0^!
1Z!
1Y!
1X!
0U!
1T!
1P!
1M!
1L!
1H!
1G!
1c!
1&!
1B!
1A!
1=!
1<!
19!
15!
04!
11!
10!
1/!
0+!
1)!
1^
1]
1Y
1X
1U
1Q
0P
1M
1L
1K
0G
1E
1B
#20000
0+
0>
01
05
0-
09
14
06
0:
0?
0@
1#
0*
12
1(
1)
0/
07
0$!
0#!
0"!
0|
0{
0y
0x
0w
1v
1t
0s
0q
0o
0m
0l
1k
1j
1e
1b!
1]!
1\!
0[!
0Z!
0X!
0V!
0T!
1S!
1Q!
0P!
0O!
0N!
0L!
0K!
0G!
0F!
0E!
0D!
0C!
0B!
0>!
0=!
0;!
0:!
09!
18!
16!
05!
03!
01!
0/!
0.!
1-!
1,!
1'!
0`
0_
0^
0Z
0Y
0W
0V
0U
1T
1R
0Q
0O
0M
0K
0J
1I
1H
1C
#25000
15
04
1:
0#
02
0)
17
0"
0%
0,
10
08
13
1|
0z
1y
1w
0v
1u
0t
1r
0n
0k
0g
0e
0d
0c!
0b!
0`!
0\!
0Y!
1U!
0S!
1R!
0Q!
1P!
1N!
0M!
1K!
1>!
0<!
1;!
19!
08!
17!
06!
14!
00!
0-!
0)!
0'!
0&!
1Z
0X
1W
1U
0T
1S
0R
1P
0L
0I
0E
0C
0B
#30000
14
12
00
18
1+
1?
1@
0(
1/
1.
0<
1$!
1#!
0~
1z
1v
1t
0r
1q
1p
1m
0j
0]!
1Z!
1W!
1V!
0U!
1S!
1Q!
1M!
0I!
1F!
1E!
1D!
1C!
0@!
1<!
18!
16!
04!
13!
12!
1/!
0,!
1`
1_
0\
1X
1T
1R
0P
1O
1N
1K
0H
#35000
04
02
0@
0.
1<
1>
1-
16
1*
1'
0=
0$
1&
0$!
1"!
0!!
1~
1x
0v
0t
0p
1o
1l
1i
1h
0f
0a!
1_!
1^!
1[!
1X!
0W!
0S!
0Q!
1O!
1I!
0H!
1G!
0E!
0D!
1B!
0A!
1@!
1:!
08!
06!
02!
11!
1.!
1+!
1*!
0(!
0`
1^
0]
1\
1V
0T
0R
0N
1M
1J
1G
1F
0D
#40000
1.
0<
0-
06
0*
0'
0&
0?
05
0:
1#
1)
19
0#!
0~
0|
1{
0x
0w
1p
0o
0l
1k
0i
0h
1e
1b!
0_!
0^!
1\!
0[!
0X!
1W!
0P!
0O!
1L!
0K!
0I!
0F!
0C!
0@!
0>!
1=!
0:!
09!
12!
01!
0.!
1-!
0+!
0*!
1'!
0_
0\
0Z
1Y
0V
0U
1N
0M
0J
1I
0G
0F
1C
#45000
0.
1<
1-
1'
15
1:
0#
0)
09
14
12
1@
10
0/
1%
1,
11
1;
0!
1$!
1~
1}
1|
0{
1w
1v
1t
1s
1r
0q
0p
1o
1n
0k
1i
1g
0e
0c
0d!
0b!
1`!
1^!
0\!
1Y!
1X!
0W!
0V!
1U!
1T!
1S!
1Q!
1P!
0L!
1K!
1J!
1I!
1E!
1D!
1@!
1?!
1>!
0=!
19!
18!
16!
15!
14!
03!
02!
11!
10!
0-!
1+!
1)!
0'!
0%!
1`
1\
1[
1Z
0Y
1U
1T
1R
1Q
1P
0O
0N
1M
1L
0I
1G
1E
0C
0A
#50000
0-
05
1#
04
0@
0%
0,
01
16
1?
1$
08
07
03
0$!
1#!
0z
0y
1x
0w
0v
0u
0s
0o
0n
0g
1f
1e
1b!
1a!
0`!
0Y!
0X!
0T!
0R!
0Q!
0P!
1O!
0N!
0M!
1F!
0E!
0D!
1C!
0<!
0;!
1:!
09!
08!
07!
05!
01!
00!
0)!
1(!
1'!
0`
1_
0X
0W
1V
0U
0T
0S
0Q
0M
0L
0E
1D
1C
#55000
1-
0#
14
1%
06
18
17
13
1.
0'
02
00
1!
1*
1=
1(
1"
1!!
1z
1y
0x
1v
1u
0t
0r
1p
1o
1l
1j
0i
1g
0e
1d
1c
1d!
1c!
0b!
1`!
0^!
1]!
1[!
1X!
1W!
0U!
0S!
1R!
1Q!
0O!
1N!
1M!
1H!
1A!
1<!
1;!
0:!
18!
17!
06!
04!
12!
11!
1.!
1,!
0+!
1)!
0'!
1&!
1%!
1]
1X
1W
0V
1T
1S
0R
0P
1N
1M
1J
1H
0G
1E
0C
1B
1A
#60000
0%
07
0.
1'
12
10
15
1@
0$
0;
1&
0+
1$!
0}
0y
1w
1t
1r
0p
0m
1i
1h
0g
0f
0a!
0`!
1_!
1^!
0Z!
0W!
1U!
1S!
1P!
0N!
0J!
1E!
1D!
0?!
0;!
19!
16!
14!
02!
0/!
1+!
1*!
0)!
0(!
1`
0[
0W
1U
1R
1P
0N
0K
1G
1F
0E
0D
#65000
17
0'
05
0@
0-
1#
16
0!
0*
0=
11
0?
1)
0>
0$!
0#!
0"!
0!!
1y
1x
0w
1s
0o
0l
1k
0i
1e
0c
0d!
1b!
0^!
1\!
0[!
0X!
1T!
0P!
1O!
1N!
0H!
0G!
0F!
0E!
0D!
0C!
0B!
0A!
1;!
1:!
09!
15!
01!
0.!
1-!
0+!
1'!
0%!
0`
0_
0^
0]
1W
1V
0U
1Q
0M
0J
1I
0G
1C
0A
#70000
07
1'
15
0#
0)
1.
02
00
0&
04
08
03
0<
1/
0~
0z
0y
1w
0v
0u
0t
0r
1q
1p
0k
1i
0h
0e
0b!
0_!
1^!
0\!
1W!
1V!
0U!
0S!
0R!
0Q!
1P!
0N!
0M!
0I!
0@!
0<!
0;!
19!
08!
07!
06!
04!
13!
12!
0-!
1+!
0*!
0'!
0\
0X
0W
1U
0T
0S
0R
0P
1O
1N
0I
1G
0F
0C
#75000
17
1#
1)
0.
12
18
1<
0/
1!
1=
01
1>
1;
0"
19
1"!
1!!
1~
1}
1{
1z
1y
1t
0s
0q
0p
1k
1e
0d
1c
1d!
0c!
1b!
1\!
0W!
0V!
0T!
1S!
1N!
1M!
1L!
1J!
1I!
1H!
1G!
1B!
1A!
1@!
1?!
1=!
1<!
1;!
16!
05!
03!
02!
1-!
1'!
0&!
1%!
1^
1]
1\
1[
1Y
1X
1W
1R
0Q
0O
0N
1I
1C
0B
1A
#80000
07
0)
1.
02
0<
0=
11
0>
0;
10
14
13
1-
1*
1%
1$
1+
0:
0"!
0!!
0~
0}
0|
0y
1v
1u
0t
1s
1r
1p
1o
1m
1l
0k
1g
1f
1a!
1`!
0\!
1[!
1Z!
1X!
1W!
1U!
1T!
0S!
1R!
1Q!
0N!
0K!
0J!
0I!
0H!
0G!
0B!
0A!
0@!
0?!
0>!
0;!
18!
17!
06!
15!
14!
12!
11!
1/!
1.!
0-!
1)!
1(!
0^
0]
0\
0[
0Z
0W
1T
1S
0R
1Q
1P
1N
1M
1K
1J
0I
1E
1D
#85000
1)
12
1=
01
00
03
0*
0%
0$
1/
0'
1&
1@
06
1?
1,
1$!
1#!
1!!
0x
0u
1t
0s
0r
1q
1n
0l
1k
0i
1h
0g
0f
0a!
0`!
1_!
0^!
1\!
0[!
1Y!
1V!
0U!
0T!
1S!
0R!
0O!
1H!
1F!
1E!
1D!
1C!
1A!
0:!
07!
16!
05!
04!
13!
10!
0.!
1-!
0+!
1*!
0)!
0(!
1`
1_
1]
0V
0S
1R
0Q
0P
1O
1L
0J
1I
0G
1F
0E
0D
#90000
11
0/
0?
17
0.
1>
1;
1"
09
05
0#!
1"!
1}
0{
1y
0w
1s
0q
0p
1d
1c!
0W!
0V!
1T!
0P!
1N!
0L!
1J!
1G!
0F!
0C!
1B!
1?!
0=!
1;!
09!
15!
03!
02!
1&!
0_
1^
1[
0Y
1W
0U
1Q
0O
0N
1B
#95000
01
1/
1?
15
02
13
1*
1%
1'
0&
0@
16
1<
0-
0+
1:
0#
0!
0(
0$!
1#!
1~
1|
1x
1w
1u
0t
0s
1q
0o
0m
1l
0j
1i
0h
1g
0e
0c
0d!
0b!
1`!
0_!
1^!
0]!
1[!
0Z!
0X!
1V!
0T!
0S!
1R!
1P!
1O!
1K!
1I!
1F!
0E!
0D!
1C!
1@!
1>!
1:!
19!
17!
06!
05!
13!
01!
0/!
1.!
0,!
1+!
0*!
1)!
0'!
0%!
0`
1_
1\
1Z
1V
1U
1S
0R
0Q
1O
0M
0K
1J
0H
1G
0F
1E
0C
0A
#100000
11
05
12
03
0'
1@
06
1-
0:
1#
1!
07
1.
0>
0;
19
0)
0=
10
04
1$!
0"!
0!!
0}
0|
1{
0y
0x
0w
0v
0u
1t
1s
1r
1p
1o
0k
0i
1e
1c
1d!
1b!
0^!
0\!
1X!
1W!
1U!
1T!
1S!
0R!
0Q!
0P!
0O!
0N!
1L!
0K!
0J!
0H!
0G!
1E!
1D!
0B!
0A!
0?!
0>!
1=!
0;!
0:!
09!
08!
07!
16!
15!
14!
12!
11!
0-!
0+!
1'!
1%!
1`
0^
0]
0[
0Z
1Y
0W
0V
0U
0T
0S
1R
1Q
1P
1N
1M
0I
0G
1C
1A
#105000
0@
0-
17
1>
1=
0?
0*
0%
1&
0<
1+
1(
0"
1$
0$!
0#!
1"!
1!!
0~
1y
0o
1m
0l
1j
1h
0g
1f
0d
0c!
1a!
0`!
1_!
1]!
0[!
1Z!
0X!
1N!
0I!
1H!
1G!
0F!
0E!
0D!
0C!
1B!
1A!
0@!
1;!
01!
1/!
0.!
1,!
1*!
0)!
1(!
0&!
0`
0_
1^
1]
0\
1W
0M
1K
0J
1H
1F
0E
1D
0B
#110000
1@
07
0>
0=
0+
13
0!
1)
14
1$!
0"!
0!!
0y
1v
1u
0m
1k
0c
0d!
1\!
0Z!
1R!
1Q!
0N!
0H!
0G!
1E!
1D!
0B!
0A!
0;!
18!
17!
0/!
1-!
0%!
1`
0^
0]
0W
1T
1S
0K
1I
0A
#115000
0@
1!
0)
04
1?
1*
0&
0$
15
16
1:
09
0/
08
0$!
1#!
1|
0{
0z
1x
1w
0v
0q
1l
0k
0h
0f
1c
1d!
0a!
0_!
0\!
1[!
0V!
0Q!
1P!
1O!
0M!
0L!
1K!
1F!
0E!
0D!
1C!
1>!
0=!
0<!
1:!
19!
08!
03!
1.!
0-!
0*!
0(!
1%!
0`
1_
1Z
0Y
0X
1V
1U
0T
0O
1J
0I
0F
0D
1A
#120000
1@
0!
1)
14
0?
05
06
0:
19
1/
1>
03
1-
1%
1<
01
1$!
0#!
1"!
1~
0|
1{
0x
0w
1v
0u
0s
1q
1o
1k
1g
0c
0d!
1`!
1\!
1X!
1V!
0T!
0R!
1Q!
0P!
0O!
1L!
0K!
1I!
1G!
0F!
1E!
1D!
0C!
1B!
1@!
0>!
1=!
0:!
09!
18!
07!
05!
13!
11!
1-!
1)!
0%!
1`
0_
1^
1\
0Z
1Y
0V
0U
1T
0S
0Q
1O
1M
1I
1E
0A
#125000
1!
0)
1?
16
1:
0/
0>
0-
0%
11
0*
1&
17
1=
0(
1'
0#
0e
1c
1#!
0"!
1!!
1|
1y
1x
1s
0q
0o
0l
0k
0j
1i
1h
0g
0`!
1_!
1^!
0]!
0\!
0[!
0X!
0V!
1T!
1O!
1N!
1K!
1H!
0G!
1F!
1d!
0b!
0'!
1%!
1C!
0B!
1A!
1>!
1;!
1:!
15!
03!
01!
0.!
0-!
0,!
1+!
1*!
0)!
1_
0^
1]
1Z
1W
1V
1Q
0O
0M
0J
0I
0H
1G
1F
0E
0C
1A
#130000
0!
1)
0?
06
0:
1>
01
0&
0=
1(
0'
1#
0@
04
15
09
0<
1$
18
1+
1"
02
0.
0,
1f
1e
1d
0c
0$!
0#!
1"!
0!!
0~
0|
0{
1z
0x
1w
0v
0t
0s
0p
0n
1m
1k
1j
0i
0h
0_!
0^!
1]!
1\!
1Z!
0Y!
0W!
0T!
0S!
0Q!
1P!
0O!
1M!
0L!
0K!
0I!
0H!
1G!
0F!
0E!
0d!
1c!
1b!
1a!
1(!
1'!
1&!
0%!
0D!
0C!
1B!
0A!
0@!
0>!
0=!
1<!
0:!
19!
08!
06!
05!
02!
00!
1/!
1-!
1,!
0+!
0*!
0`
0_
1^
0]
0\
0Z
0Y
1X
0V
1U
0T
0R
0Q
0N
0L
1K
1I
1H
0G
0F
1D
1C
1B
0A
#135000
1!
16
11
1&
1@
05
1<
0$
0"
12
1,
13
0f
0d
1c
1$!
1~
1x
0w
1u
1t
1s
1n
1h
1_!
1Y!
1T!
1S!
1R!
0P!
1O!
1I!
1E!
1d!
0c!
0a!
0(!
0&!
1%!
1D!
1@!
1:!
09!
17!
16!
15!
10!
1*!
1`
1\
1V
0U
1S
1R
1Q
1L
1F
0D
0B
1A
#140000
01
0@
15
0<
0,
1:
1=
0#
0+
1.
1/
07
00
0$!
1!!
0~
1|
0y
1w
0s
0r
1q
1p
0n
0m
0e
0b!
0Z!
0Y!
1W!
1V!
0U!
0T!
1P!
0N!
1K!
0I!
1H!
0E!
0D!
1A!
0@!
1>!
0;!
19!
05!
04!
13!
12!
00!
0/!
0'!
0`
1]
0\
1Z
0W
1U
0Q
0P
1O
1N
0L
0K
0C
#145000
1<
1#
1+
0.
17
0!
1$
02
0>
0(
08
1-
1%
1*
1;
0"!
1~
1}
0z
1y
0t
0p
1o
1m
1l
0j
1g
1f
1e
0c
0d!
1b!
1a!
1`!
0]!
1[!
1Z!
1X!
0W!
0S!
1N!
0M!
1J!
1I!
0G!
0B!
1@!
1?!
0<!
1;!
06!
02!
11!
1/!
1.!
0,!
1)!
1(!
1'!
0%!
0^
1\
1[
0X
1W
0R
0N
1M
1K
1J
0H
1E
1D
1C
0A
#150000
0#
07
1!
12
1>
0-
0%
0;
11
05
10
0&
03
14
19
0e
1c
1"!
0}
1{
0y
0w
1v
0u
1t
1s
1r
0o
0h
0g
0`!
0_!
0X!
1U!
1T!
1S!
0R!
1Q!
0P!
0N!
1L!
0J!
1G!
1d!
0b!
0'!
1%!
1B!
0?!
1=!
0;!
09!
18!
07!
16!
15!
14!
01!
0*!
0)!
1^
0[
1Y
0W
0U
1T
0S
1R
1Q
1P
0M
0F
0E
0C
1A
#155000
1#
0!
02
1-
1;
15
1&
0<
1(
0*
0:
0=
06
1"
1?
1'
1e
1d
0c
1#!
0!!
0~
1}
0|
0x
1w
0t
1o
0l
1j
1i
1h
1_!
1^!
1]!
0[!
1X!
0S!
1P!
0O!
0K!
1J!
0I!
0H!
1F!
0d!
1c!
1b!
1'!
1&!
0%!
1C!
0A!
0@!
1?!
0>!
0:!
19!
06!
11!
0.!
1,!
1+!
1*!
1_
0]
0\
1[
0Z
0V
1U
0R
1M
0J
1H
1G
1F
1C
1B
0A
#160000
1!
12
0;
0&
1<
1:
16
0?
0'
0>
1%
13
04
0+
1.
0$
1,
0/
0)
0f
1c
0#!
0"!
1~
0}
1|
1x
0v
1u
1t
0q
1p
1n
0m
0k
0i
0h
1g
1`!
0_!
0^!
0\!
0Z!
1Y!
1W!
0V!
1S!
1R!
0Q!
1O!
1K!
0J!
1I!
0G!
0F!
1d!
0a!
0(!
1%!
0C!
0B!
1@!
0?!
1>!
1:!
08!
17!
16!
03!
12!
10!
0/!
0-!
0+!
0*!
1)!
0_
0^
1\
0[
1Z
1V
0T
1S
1R
0O
1N
1L
0K
0I
0G
0F
1E
0D
1A
#165000
0!
0<
0:
1?
1>
0%
14
0.
1$
1)
0#
0(
0"
17
01
1@
1f
0e
0d
0c
1$!
1#!
1"!
0~
0|
1y
1v
0s
0p
1k
0j
0g
0`!
0]!
1\!
0W!
0T!
1Q!
1N!
0K!
0I!
1G!
1F!
1E!
0d!
0c!
0b!
1a!
1(!
0'!
0&!
0%!
1D!
1C!
1B!
0@!
0>!
1;!
18!
05!
02!
1-!
0,!
0)!
1`
1_
1^
0\
0Z
1W
1T
0Q
0N
1I
0H
0E
1D
0C
0B
0A
#170000
1<
1:
0?
1%
1.
0)
1#
1(
11
1;
1&
0-
05
1*
1=
09
18
0#!
1!!
1~
1}
1|
0{
1z
0w
1s
1p
0o
1l
0k
1j
1h
1g
1e
1b!
1`!
1_!
1]!
0\!
1[!
0X!
1W!
1T!
0P!
1M!
0L!
1K!
1J!
1I!
1H!
0F!
0C!
1A!
1@!
1?!
1>!
0=!
1<!
09!
15!
12!
01!
1.!
0-!
1,!
1*!
1)!
1'!
0_
1]
1\
1[
1Z
0Y
1X
0U
1Q
1N
0M
1J
0I
1H
1F
1E
1C
#175000
1)
0#
01
1-
15
0*
19
08
1!
04
0$
1"
07
02
06
1'
03
1+
0,
1/
1{
0z
0y
0x
1w
0v
0u
0t
0s
1q
1o
0n
1m
0l
1k
1i
0f
0e
1d
1c
1d!
1c!
0b!
0a!
1^!
1\!
0[!
1Z!
0Y!
1X!
1V!
0T!
0S!
0R!
0Q!
1P!
0O!
0N!
0M!
1L!
1=!
0<!
0;!
0:!
19!
08!
07!
06!
05!
13!
11!
00!
1/!
0.!
1-!
1+!
0(!
0'!
1&!
1%!
1Y
0X
0W
0V
1U
0T
0S
0R
0Q
1O
1M
0L
1K
0J
1I
1G
0D
0C
1B
1A
#180000
1#
11
05
09
0!
14
17
12
13
0+
1,
1?
0(
0;
0=
0>
1e
0c
1#!
0"!
0!!
0}
0{
1y
0w
1v
1u
1t
1s
1n
0m
0j
0]!
0Z!
1Y!
1T!
1S!
1R!
1Q!
0P!
1N!
0L!
0J!
0H!
0G!
1F!
0d!
1b!
1'!
0%!
1C!
0B!
0A!
0?!
0=!
1;!
09!
18!
17!
16!
15!
10!
0/!
0,!
1_
0^
0]
0[
0Y
1W
0U
1T
1S
1R
1Q
1L
0K
0H
1C
0A
#185000
01
15
19
04
07
1+
0,
1(
1=
1>
0)
1*
18
1$
0"
0'
0/
0%
0.
0@
00
0$!
1"!
1!!
1{
1z
0y
1w
0v
0s
0r
0q
0p
0n
1m
1l
0k
1j
0i
0g
1f
0d
0c!
1a!
0`!
0^!
1]!
0\!
1[!
1Z!
0Y!
0W!
0V!
0U!
0T!
0Q!
1P!
0N!
1M!
1L!
1H!
1G!
0E!
0D!
1B!
1A!
1=!
1<!
0;!
19!
08!
05!
04!
03!
02!
00!
1/!
1.!
0-!
1,!
0+!
0)!
1(!
0&!
0`
1^
1]
1Y
1X
0W
1U
0T
0Q
0P
0O
0N
0L
1K
1J
0I
1H
0G
0E
1D
0B
#190000
11
14
0+
1,
08
0$
1'
10
0#
1!
03
1;
0-
0:
1}
0|
0z
1v
0u
1s
1r
0o
1n
0m
1i
0f
0e
1c
1d!
0b!
0a!
1^!
0Z!
1Y!
0X!
1U!
1T!
0R!
1Q!
0M!
0K!
1J!
1?!
0>!
0<!
18!
07!
15!
14!
01!
10!
0/!
1+!
0(!
0'!
1%!
1[
0Z
0X
1T
0S
1Q
1P
0M
1L
0K
1G
0D
0C
1A
#195000
01
1+
0,
18
0'
1-
1:
09
17
0(
1)
0*
1"
1.
02
0?
0<
0#!
0~
1|
0{
1z
1y
0t
0s
1p
1o
0n
1m
0l
1k
0j
0i
1d
1c!
0^!
0]!
1\!
0[!
1Z!
0Y!
1X!
1W!
0T!
0S!
1N!
1M!
0L!
1K!
0I!
0F!
0C!
0@!
1>!
0=!
1<!
1;!
06!
05!
12!
11!
00!
1/!
0.!
1-!
0,!
0+!
1&!
0_
0\
1Z
0Y
1X
1W
0R
0Q
1N
1M
0L
1K
0J
1I
0H
0G
1B
