EL3111_4_20221111_13220034/0_Prelab/code/tp_1/simulation/qsim/mux_2to1_32bit.msim.vcd
$comment
	File created using the following command:
		vcd file mux_2to1_32bit.msim.vcd -direction
$end
$date
	Fri Nov 25 14:20:51 2022
$end
$version
	Questa Intel Starter FPGA Edition Version 2021.2
$end
$timescale
	1ps
$end

$scope module mux_2to1_32bit_vhd_vec_tst $end
$var wire 1 ! D1 [31] $end
$var wire 1 " D1 [30] $end
$var wire 1 # D1 [29] $end
$var wire 1 $ D1 [28] $end
$var wire 1 % D1 [27] $end
$var wire 1 & D1 [26] $end
$var wire 1 ' D1 [25] $end
$var wire 1 ( D1 [24] $end
$var wire 1 ) D1 [23] $end
$var wire 1 * D1 [22] $end
$var wire 1 + D1 [21] $end
$var wire 1 , D1 [20] $end
$var wire 1 - D1 [19] $end
$var wire 1 . D1 [18] $end
$var wire 1 / D1 [17] $end
$var wire 1 0 D1 [16] $end
$var wire 1 1 D1 [15] $end
$var wire 1 2 D1 [14] $end
$var wire 1 3 D1 [13] $end
$var wire 1 4 D1 [12] $end
$var wire 1 5 D1 [11] $end
$var wire 1 6 D1 [10] $end
$var wire 1 7 D1 [9] $end
$var wire 1 8 D1 [8] $end
$var wire 1 9 D1 [7] $end
$var wire 1 : D1 [6] $end
$var wire 1 ; D1 [5] $end
$var wire 1 < D1 [4] $end
$var wire 1 = D1 [3] $end
$var wire 1 > D1 [2] $end
$var wire 1 ? D1 [1] $end
$var wire 1 @ D1 [0] $end
$var wire 1 A D2 [31] $end
$var wire 1 B D2 [30] $end
$var wire 1 C D2 [29] $end
$var wire 1 D D2 [28] $end
$var wire 1 E D2 [27] $end
$var wire 1 F D2 [26] $end
$var wire 1 G D2 [25] $end
$var wire 1 H D2 [24] $end
$var wire 1 I D2 [23] $end
$var wire 1 J D2 [22] $end
$var wire 1 K D2 [21] $end
$var wire 1 L D2 [20] $end
$var wire 1 M D2 [19] $end
$var wire 1 N D2 [18] $end
$var wire 1 O D2 [17] $end
$var wire 1 P D2 [16] $end
$var wire 1 Q D2 [15] $end
$var wire 1 R D2 [14] $end
$var wire 1 S D2 [13] $end
$var wire 1 T D2 [12] $end
$var wire 1 U D2 [11] $end
$var wire 1 V D2 [10] $end
$var wire 1 W D2 [9] $end
$var wire 1 X D2 [8] $end
$var wire 1 Y D2 [7] $end
$var wire 1 Z D2 [6] $end
$var wire 1 [ D2 [5] $end
$var wire 1 \ D2 [4] $end
$var wire 1 ] D2 [3] $end
$var wire 1 ^ D2 [2] $end
$var wire 1 _ D2 [1] $end
$var wire 1 ` D2 [0] $end
$var wire 1 a S $end
$var wire 1 b Y [31] $end
$var wire 1 c Y [30] $end
$var wire 1 d Y [29] $end
$var wire 1 e Y [28] $end
$var wire 1 f Y [27] $end
$var wire 1 g Y [26] $end
$var wire 1 h Y [25] $end
$var wire 1 i Y [24] $end
$var wire 1 j Y [23] $end
$var wire 1 k Y [22] $end
$var wire 1 l Y [21] $end
$var wire 1 m Y [20] $end
$var wire 1 n Y [19] $end
$var wire 1 o Y [18] $end
$var wire 1 p Y [17] $end
$var wire 1 q Y [16] $end
$var wire 1 r Y [15] $end
$var wire 1 s Y [14] $end
$var wire 1 t Y [13] $end
$var wire 1 u Y [12] $end
$var wire 1 v Y [11] $end
$var wire 1 w Y [10] $end
$var wire 1 x Y [9] $end
$var wire 1 y Y [8] $end
$var wire 1 z Y [7] $end
$var wire 1 { Y [6] $end
$var wire 1 | Y [5] $end
$var wire 1 } Y [4] $end
$var wire 1 ~ Y [3] $end
$var wire 1 !! Y [2] $end
$var wire 1 "! Y [1] $end
$var wire 1 #! Y [0] $end

$scope module i1 $end
$var wire 1 $! devoe $end
$var wire 1 %! ww_devoe $end
$var wire 1 &! ww_D1 [31] $end
$var wire 1 '! ww_D1 [30] $end
$var wire 1 (! ww_D1 [29] $end
$var wire 1 )! ww_D1 [28] $end
$var wire 1 *! ww_D1 [27] $end
$var wire 1 +! ww_D1 [26] $end
$var wire 1 ,! ww_D1 [25] $end
$var wire 1 -! ww_D1 [24] $end
$var wire 1 .! ww_D1 [23] $end
$var wire 1 /! ww_D1 [22] $end
$var wire 1 0! ww_D1 [21] $end
$var wire 1 1! ww_D1 [20] $end
$var wire 1 2! ww_D1 [19] $end
$var wire 1 3! ww_D1 [18] $end
$var wire 1 4! ww_D1 [17] $end
$var wire 1 5! ww_D1 [16] $end
$var wire 1 6! ww_D1 [15] $end
$var wire 1 7! ww_D1 [14] $end
$var wire 1 8! ww_D1 [13] $end
$var wire 1 9! ww_D1 [12] $end
$var wire 1 :! ww_D1 [11] $end
$var wire 1 ;! ww_D1 [10] $end
$var wire 1 <! ww_D1 [9] $end
$var wire 1 =! ww_D1 [8] $end
$var wire 1 >! ww_D1 [7] $end
$var wire 1 ?! ww_D1 [6] $end
$var wire 1 @! ww_D1 [5] $end
$var wire 1 A! ww_D1 [4] $end
$var wire 1 B! ww_D1 [3] $end
$var wire 1 C! ww_D1 [2] $end
$var wire 1 D! ww_D1 [1] $end
$var wire 1 E! ww_D1 [0] $end
$var wire 1 F! ww_D2 [31] $end
$var wire 1 G! ww_D2 [30] $end
$var wire 1 H! ww_D2 [29] $end
$var wire 1 I! ww_D2 [28] $end
$var wire 1 J! ww_D2 [27] $end
$var wire 1 K! ww_D2 [26] $end
$var wire 1 L! ww_D2 [25] $end
$var wire 1 M! ww_D2 [24] $end
$var wire 1 N! ww_D2 [23] $end
$var wire 1 O! ww_D2 [22] $end
$var wire 1 P! ww_D2 [21] $end
$var wire 1 Q! ww_D2 [20] $end
$var wire 1 R! ww_D2 [19] $end
$var wire 1 S! ww_D2 [18] $end
$var wire 1 T! ww_D2 [17] $end
$var wire 1 U! ww_D2 [16] $end
$var wire 1 V! ww_D2 [15] $end
$var wire 1 W! ww_D2 [14] $end
$var wire 1 X! ww_D2 [13] $end
$var wire 1 Y! ww_D2 [12] $end
$var wire 1 Z! ww_D2 [11] $end
$var wire 1 [! ww_D2 [10] $end
$var wire 1 \! ww_D2 [9] $end
$var wire 1 ]! ww_D2 [8] $end
$var wire 1 ^! ww_D2 [7] $end
$var wire 1 _! ww_D2 [6] $end
$var wire 1 `! ww_D2 [5] $end
$var wire 1 a! ww_D2 [4] $end
$var wire 1 b! ww_D2 [3] $end
$var wire 1 c! ww_D2 [2] $end
$var wire 1 d! ww_D2 [1] $end
$var wire 1 e! ww_D2 [0] $end
$var wire 1 f! ww_Y [31] $end
$var wire 1 g! ww_Y [30] $end
$var wire 1 h! ww_Y [29] $end
$var wire 1 i! ww_Y [28] $end
$var wire 1 j! ww_Y [27] $end
$var wire 1 k! ww_Y [26] $end
$var wire 1 l! ww_Y [25] $end
$var wire 1 m! ww_Y [24] $end
$var wire 1 n! ww_Y [23] $end
$var wire 1 o! ww_Y [22] $end
$var wire 1 p! ww_Y [21] $end
$var wire 1 q! ww_Y [20] $end
$var wire 1 r! ww_Y [19] $end
$var wire 1 s! ww_Y [18] $end
$var wire 1 t! ww_Y [17] $end
$var wire 1 u! ww_Y [16] $end
$var wire 1 v! ww_Y [15] $end
$var wire 1 w! ww_Y [14] $end
$var wire 1 x! ww_Y [13] $end
$var wire 1 y! ww_Y [12] $end
$var wire 1 z! ww_Y [11] $end
$var wire 1 {! ww_Y [10] $end
$var wire 1 |! ww_Y [9] $end
$var wire 1 }! ww_Y [8] $end
$var wire 1 ~! ww_Y [7] $end
$var wire 1 !" ww_Y [6] $end
$var wire 1 "" ww_Y [5] $end
$var wire 1 #" ww_Y [4] $end
$var wire 1 $" ww_Y [3] $end
$var wire 1 %" ww_Y [2] $end
$var wire 1 &" ww_Y [1] $end
$var wire 1 '" ww_Y [0] $end
$var wire 1 (" ww_S $end
$var wire 1 )" \D2[0]~input_o\ $end
$var wire 1 *" \D1[0]~input_o\ $end
$var wire 1 +" \S~input_o\ $end
$var wire 1 ," \Y~0_combout\ $end
$var wire 1 -" \D1[1]~input_o\ $end
$var wire 1 ." \D2[1]~input_o\ $end
$var wire 1 /" \Y~1_combout\ $end
$var wire 1 0" \D1[2]~input_o\ $end
$var wire 1 1" \D2[2]~input_o\ $end
$var wire 1 2" \Y~2_combout\ $end
$var wire 1 3" \D2[3]~input_o\ $end
$var wire 1 4" \D1[3]~input_o\ $end
$var wire 1 5" \Y~3_combout\ $end
$var wire 1 6" \D2[4]~input_o\ $end
$var wire 1 7" \D1[4]~input_o\ $end
$var wire 1 8" \Y~4_combout\ $end
$var wire 1 9" \D1[5]~input_o\ $end
$var wire 1 :" \D2[5]~input_o\ $end
$var wire 1 ;" \Y~5_combout\ $end
$var wire 1 <" \D2[6]~input_o\ $end
$var wire 1 =" \D1[6]~input_o\ $end
$var wire 1 >" \Y~6_combout\ $end
$var wire 1 ?" \D1[7]~input_o\ $end
$var wire 1 @" \D2[7]~input_o\ $end
$var wire 1 A" \Y~7_combout\ $end
$var wire 1 B" \D2[8]~input_o\ $end
$var wire 1 C" \D1[8]~input_o\ $end
$var wire 1 D" \Y~8_combout\ $end
$var wire 1 E" \D1[9]~input_o\ $end
$var wire 1 F" \D2[9]~input_o\ $end
$var wire 1 G" \Y~9_combout\ $end
$var wire 1 H" \D2[10]~input_o\ $end
$var wire 1 I" \D1[10]~input_o\ $end
$var wire 1 J" \Y~10_combout\ $end
$var wire 1 K" \D2[11]~input_o\ $end
$var wire 1 L" \D1[11]~input_o\ $end
$var wire 1 M" \Y~11_combout\ $end
$var wire 1 N" \D1[12]~input_o\ $end
$var wire 1 O" \D2[12]~input_o\ $end
$var wire 1 P" \Y~12_combout\ $end
$var wire 1 Q" \D1[13]~input_o\ $end
$var wire 1 R" \D2[13]~input_o\ $end
$var wire 1 S" \Y~13_combout\ $end
$var wire 1 T" \D2[14]~input_o\ $end
$var wire 1 U" \D1[14]~input_o\ $end
$var wire 1 V" \Y~14_combout\ $end
$var wire 1 W" \D1[15]~input_o\ $end
$var wire 1 X" \D2[15]~input_o\ $end
$var wire 1 Y" \Y~15_combout\ $end
$var wire 1 Z" \D2[16]~input_o\ $end
$var wire 1 [" \D1[16]~input_o\ $end
$var wire 1 \" \Y~16_combout\ $end
$var wire 1 ]" \D2[17]~input_o\ $end
$var wire 1 ^" \D1[17]~input_o\ $end
$var wire 1 _" \Y~17_combout\ $end
$var wire 1 `" \D1[18]~input_o\ $end
$var wire 1 a" \D2[18]~input_o\ $end
$var wire 1 b" \Y~18_combout\ $end
$var wire 1 c" \D2[19]~input_o\ $end
$var wire 1 d" \D1[19]~input_o\ $end
$var wire 1 e" \Y~19_combout\ $end
$var wire 1 f" \D1[20]~input_o\ $end
$var wire 1 g" \D2[20]~input_o\ $end
$var wire 1 h" \Y~20_combout\ $end
$var wire 1 i" \D2[21]~input_o\ $end
$var wire 1 j" \D1[21]~input_o\ $end
$var wire 1 k" \Y~21_combout\ $end
$var wire 1 l" \D2[22]~input_o\ $end
$var wire 1 m" \D1[22]~input_o\ $end
$var wire 1 n" \Y~22_combout\ $end
$var wire 1 o" \D2[23]~input_o\ $end
$var wire 1 p" \D1[23]~input_o\ $end
$var wire 1 q" \Y~23_combout\ $end
$var wire 1 r" \D1[24]~input_o\ $end
$var wire 1 s" \D2[24]~input_o\ $end
$var wire 1 t" \Y~24_combout\ $end
$var wire 1 u" \D1[25]~input_o\ $end
$var wire 1 v" \D2[25]~input_o\ $end
$var wire 1 w" \Y~25_combout\ $end
$var wire 1 x" \D2[26]~input_o\ $end
$var wire 1 y" \D1[26]~input_o\ $end
$var wire 1 z" \Y~26_combout\ $end
$var wire 1 {" \D2[27]~input_o\ $end
$var wire 1 |" \D1[27]~input_o\ $end
$var wire 1 }" \Y~27_combout\ $end
$var wire 1 ~" \D2[28]~input_o\ $end
$var wire 1 !# \D1[28]~input_o\ $end
$var wire 1 "# \Y~28_combout\ $end
$var wire 1 ## \D2[29]~input_o\ $end
$var wire 1 $# \D1[29]~input_o\ $end
$var wire 1 %# \Y~29_combout\ $end
$var wire 1 &# \D2[30]~input_o\ $end
$var wire 1 '# \D1[30]~input_o\ $end
$var wire 1 (# \Y~30_combout\ $end
$var wire 1 )# \D1[31]~input_o\ $end
$var wire 1 *# \D2[31]~input_o\ $end
$var wire 1 +# \Y~31_combout\ $end
$var wire 1 ,# \ALT_INV_D1[31]~input_o\ $end
$var wire 1 -# \ALT_INV_D2[31]~input_o\ $end
$var wire 1 .# \ALT_INV_D1[30]~input_o\ $end
$var wire 1 /# \ALT_INV_D2[30]~input_o\ $end
$var wire 1 0# \ALT_INV_D1[29]~input_o\ $end
$var wire 1 1# \ALT_INV_D2[29]~input_o\ $end
$var wire 1 2# \ALT_INV_D1[28]~input_o\ $end
$var wire 1 3# \ALT_INV_D2[28]~input_o\ $end
$var wire 1 4# \ALT_INV_D1[27]~input_o\ $end
$var wire 1 5# \ALT_INV_D2[27]~input_o\ $end
$var wire 1 6# \ALT_INV_D1[26]~input_o\ $end
$var wire 1 7# \ALT_INV_D2[26]~input_o\ $end
$var wire 1 8# \ALT_INV_D1[25]~input_o\ $end
$var wire 1 9# \ALT_INV_D2[25]~input_o\ $end
$var wire 1 :# \ALT_INV_D1[24]~input_o\ $end
$var wire 1 ;# \ALT_INV_D2[24]~input_o\ $end
$var wire 1 <# \ALT_INV_D1[23]~input_o\ $end
$var wire 1 =# \ALT_INV_D2[23]~input_o\ $end
$var wire 1 ># \ALT_INV_D1[22]~input_o\ $end
$var wire 1 ?# \ALT_INV_D2[22]~input_o\ $end
$var wire 1 @# \ALT_INV_D1[21]~input_o\ $end
$var wire 1 A# \ALT_INV_D2[21]~input_o\ $end
$var wire 1 B# \ALT_INV_D1[20]~input_o\ $end
$var wire 1 C# \ALT_INV_D2[20]~input_o\ $end
$var wire 1 D# \ALT_INV_D1[19]~input_o\ $end
$var wire 1 E# \ALT_INV_D2[19]~input_o\ $end
$var wire 1 F# \ALT_INV_D1[18]~input_o\ $end
$var wire 1 G# \ALT_INV_D2[18]~input_o\ $end
$var wire 1 H# \ALT_INV_D1[17]~input_o\ $end
$var wire 1 I# \ALT_INV_D2[17]~input_o\ $end
$var wire 1 J# \ALT_INV_D1[16]~input_o\ $end
$var wire 1 K# \ALT_INV_D2[16]~input_o\ $end
$var wire 1 L# \ALT_INV_D1[15]~input_o\ $end
$var wire 1 M# \ALT_INV_D2[15]~input_o\ $end
$var wire 1 N# \ALT_INV_D1[14]~input_o\ $end
$var wire 1 O# \ALT_INV_D2[14]~input_o\ $end
$var wire 1 P# \ALT_INV_D1[13]~input_o\ $end
$var wire 1 Q# \ALT_INV_D2[13]~input_o\ $end
$var wire 1 R# \ALT_INV_D1[12]~input_o\ $end
$var wire 1 S# \ALT_INV_D2[12]~input_o\ $end
$var wire 1 T# \ALT_INV_D1[11]~input_o\ $end
$var wire 1 U# \ALT_INV_D2[11]~input_o\ $end
$var wire 1 V# \ALT_INV_D1[10]~input_o\ $end
$var wire 1 W# \ALT_INV_D2[10]~input_o\ $end
$var wire 1 X# \ALT_INV_D1[9]~input_o\ $end
$var wire 1 Y# \ALT_INV_D2[9]~input_o\ $end
$var wire 1 Z# \ALT_INV_D1[8]~input_o\ $end
$var wire 1 [# \ALT_INV_D2[8]~input_o\ $end
$var wire 1 \# \ALT_INV_D1[7]~input_o\ $end
$var wire 1 ]# \ALT_INV_D2[7]~input_o\ $end
$var wire 1 ^# \ALT_INV_D1[6]~input_o\ $end
$var wire 1 _# \ALT_INV_D2[6]~input_o\ $end
$var wire 1 `# \ALT_INV_D1[5]~input_o\ $end
$var wire 1 a# \ALT_INV_D2[5]~input_o\ $end
$var wire 1 b# \ALT_INV_D1[4]~input_o\ $end
$var wire 1 c# \ALT_INV_D2[4]~input_o\ $end
$var wire 1 d# \ALT_INV_D1[3]~input_o\ $end
$var wire 1 e# \ALT_INV_D2[3]~input_o\ $end
$var wire 1 f# \ALT_INV_D1[2]~input_o\ $end
$var wire 1 g# \ALT_INV_D2[2]~input_o\ $end
$var wire 1 h# \ALT_INV_D1[1]~input_o\ $end
$var wire 1 i# \ALT_INV_D2[1]~input_o\ $end
$var wire 1 j# \ALT_INV_D1[0]~input_o\ $end
$var wire 1 k# \ALT_INV_S~input_o\ $end
$var wire 1 l# \ALT_INV_D2[0]~input_o\ $end
$upscope $end
$upscope $end
$enddefinitions $end
#0
$dumpvars
0a
1$!
1%!
0("
0)"
1*"
0+"
1,"
0-"
0."
0/"
10"
11"
12"
03"
04"
05"
16"
17"
18"
19"
0:"
1;"
1<"
0="
0>"
0?"
1@"
0A"
1B"
0C"
0D"
1E"
0F"
1G"
0H"
0I"
0J"
0K"
1L"
1M"
1N"
1O"
1P"
0Q"
1R"
0S"
1T"
1U"
1V"
0W"
0X"
0Y"
1Z"
1["
1\"
1]"
0^"
0_"
0`"
0a"
0b"
1c"
0d"
0e"
1f"
0g"
1h"
0i"
0j"
0k"
0l"
1m"
1n"
1o"
1p"
1q"
1r"
0s"
1t"
0u"
0v"
0w"
0x"
0y"
0z"
1{"
1|"
1}"
0~"
0!#
0"#
1##
0$#
0%#
0&#
1'#
1(#
1)#
0*#
1+#
0,#
1-#
0.#
1/#
10#
01#
12#
13#
04#
05#
16#
17#
18#
19#
0:#
1;#
0<#
0=#
0>#
1?#
1@#
1A#
0B#
1C#
1D#
0E#
1F#
1G#
1H#
0I#
0J#
0K#
1L#
1M#
0N#
0O#
1P#
0Q#
0R#
0S#
0T#
1U#
1V#
1W#
0X#
1Y#
1Z#
0[#
1\#
0]#
1^#
0_#
0`#
1a#
0b#
0c#
1d#
1e#
0f#
0g#
1h#
1i#
0j#
1k#
1l#
1!
1"
0#
0$
1%
0&
0'
1(
1)
1*
0+
1,
0-
0.
0/
10
01
12
03
14
15
06
17
08
09
0:
1;
1<
0=
1>
0?
1@
0A
0B
1C
0D
1E
0F
0G
0H
1I
0J
0K
0L
1M
0N
1O
1P
0Q
1R
1S
1T
0U
0V
0W
1X
1Y
1Z
0[
1\
0]
1^
0_
0`
1&!
1'!
0(!
0)!
1*!
0+!
0,!
1-!
1.!
1/!
00!
11!
02!
03!
04!
15!
06!
17!
08!
19!
1:!
0;!
1<!
0=!
0>!
0?!
1@!
1A!
0B!
1C!
0D!
1E!
0F!
0G!
1H!
0I!
1J!
0K!
0L!
0M!
1N!
0O!
0P!
0Q!
1R!
0S!
1T!
1U!
0V!
1W!
1X!
1Y!
0Z!
0[!
0\!
1]!
1^!
1_!
0`!
1a!
0b!
1c!
0d!
0e!
1f!
1g!
0h!
0i!
1j!
0k!
0l!
1m!
1n!
1o!
0p!
1q!
0r!
0s!
0t!
1u!
0v!
1w!
0x!
1y!
1z!
0{!
1|!
0}!
0~!
0!"
1""
1#"
0$"
1%"
0&"
1'"
1b
1c
0d
0e
1f
0g
0h
1i
1j
1k
0l
1m
0n
0o
0p
1q
0r
1s
0t
1u
1v
0w
1x
0y
0z
0{
1|
1}
0~
1!!
0"!
1#!
$end
#10000
1#
0%
0)
0*
0,
1-
00
13
04
16
07
1:
0<
1=
0>
1?
0@
1F
1H
0I
1J
1L
0M
1N
0T
1U
1V
1W
0Y
0Z
1[
0\
1]
0^
1_
1a
0E!
1D!
0C!
1B!
0A!
1?!
0<!
1;!
09!
18!
05!
12!
01!
0/!
0.!
0*!
1(!
1d!
0c!
1b!
0a!
1`!
0_!
0^!
1\!
1[!
1Z!
0Y!
1S!
0R!
1Q!
1O!
0N!
1M!
1K!
1("
1+"
1x"
1s"
0o"
1l"
1g"
0c"
1a"
0O"
1K"
1H"
1F"
0@"
0<"
1:"
06"
13"
01"
1."
1$#
0|"
0p"
0m"
0f"
1d"
0["
1Q"
0N"
1I"
0E"
1="
07"
14"
00"
1-"
0*"
0k#
07#
0;#
1=#
0?#
0C#
1E#
0G#
1S#
0U#
0W#
0Y#
1]#
1_#
0a#
1c#
0e#
1g#
0i#
00#
14#
1<#
1>#
1B#
0D#
1J#
0P#
1R#
0V#
1X#
0^#
1b#
0d#
1f#
0h#
1j#
0,"
1/"
02"
15"
08"
1D"
1J"
0P"
1S"
1_"
1b"
0q"
1z"
1%#
0(#
0+#
0f!
0g!
1h!
1k!
0n!
1s!
1t!
1x!
0y!
1{!
1}!
0#"
1$"
0%"
1&"
0'"
0#!
1"!
0!!
1~
0}
1y
1w
0u
1t
1p
1o
0j
1g
1d
0c
0b
#20000
1*
1,
10
03
14
1<
0=
1>
0?
1@
1I
0L
0W
1Z
0[
1^
0a
0!
1$
1&
0(
1+
1.
19
0;
1A
0C
0E
1G
1K
0O
0P
1Q
0R
0X
1E!
0D!
1C!
0B!
1A!
0@!
1>!
19!
08!
15!
13!
11!
10!
1/!
0-!
1+!
1)!
0&!
1c!
0`!
1_!
0]!
0\!
0W!
1V!
0U!
0T!
0Q!
1P!
1N!
1L!
0J!
0H!
1F!
0("
0+"
1*#
0##
0{"
1v"
1o"
1i"
0g"
0]"
0Z"
1X"
0T"
0F"
0B"
1<"
0:"
11"
0)#
1!#
1y"
0r"
1m"
1j"
1f"
1`"
1["
0Q"
1N"
1?"
09"
17"
04"
10"
0-"
1*"
1k#
0-#
11#
15#
09#
0=#
0A#
1C#
1I#
1K#
0M#
1O#
1Y#
1[#
0_#
1a#
0g#
1,#
02#
06#
1:#
0>#
0@#
0B#
0F#
0J#
1P#
0R#
0\#
1`#
0b#
1d#
0f#
1h#
0j#
1,"
0/"
12"
05"
18"
0;"
1>"
1A"
0D"
0G"
1P"
0S"
0_"
1e"
1k"
0t"
0}"
1"#
1(#
1g!
1i!
0j!
0m!
1p!
1r!
0t!
0x!
1y!
0|!
0}!
1~!
1!"
0""
1#"
0$"
1%"
0&"
1'"
1#!
0"!
1!!
0~
1}
0|
1{
1z
0y
0x
1u
0t
0p
1n
1l
0i
0f
1e
1c
#30000
0*
00
13
04
0<
1=
0@
1[
0^
1a
1!
0$
0&
0.
09
0A
1E
1O
1P
1X
0#
0-
0H
1M
0N
0U
1\
0_
0"
11
02
18
1D
0S
1`
0E!
1B!
0A!
0>!
1=!
09!
18!
07!
16!
05!
03!
02!
0/!
0+!
0)!
0(!
0'!
1&!
1e!
0d!
0c!
1a!
1`!
1]!
0Z!
0X!
1U!
1T!
0S!
1R!
0M!
1J!
1I!
0F!
1("
1+"
0*#
1~"
1{"
0s"
1c"
0a"
1]"
1Z"
0R"
0K"
1B"
1:"
16"
01"
0."
1)"
1)#
0'#
0$#
0!#
0y"
0m"
0d"
0`"
0["
1W"
0U"
1Q"
0N"
1C"
0?"
07"
14"
0*"
0k#
1-#
03#
05#
1;#
0E#
1G#
0I#
0K#
1Q#
1U#
0[#
0a#
0c#
1g#
1i#
0l#
0,#
1.#
10#
12#
16#
1>#
1D#
1F#
1J#
0L#
1N#
0P#
1R#
0Z#
1\#
1b#
0d#
1j#
02"
15"
1;"
0A"
1D"
0M"
0P"
0V"
1Y"
1_"
0b"
0h"
1q"
1w"
1}"
0%#
0(#
0g!
0h!
1j!
1l!
1n!
0q!
0s!
1t!
1v!
0w!
0y!
0z!
1}!
0~!
1""
1$"
0%"
0!!
1~
1|
0z
1y
0v
0u
0s
1r
1p
0o
0m
1j
1h
1f
0d
0c
#40000
1*
10
03
0[
0a
0!
1&
19
0O
0P
0X
1#
1-
1U
0\
01
0>
1?
0Z
1(
1R
1%
06
17
0:
0F
0J
1T
0V
1Y
0]
05
1D!
0C!
0?!
1>!
1<!
0;!
0:!
08!
06!
15!
12!
1/!
1-!
1+!
1*!
1(!
0&!
0b!
0a!
0`!
0_!
1^!
0]!
0[!
1Z!
1Y!
1W!
0U!
0T!
0O!
0K!
0("
0+"
0x"
0l"
0]"
0Z"
1T"
1O"
1K"
0H"
0B"
1@"
0<"
0:"
06"
03"
0)#
1$#
1|"
1y"
1r"
1m"
1d"
1["
0W"
0Q"
0L"
0I"
1E"
1?"
0="
00"
1-"
1k#
17#
1?#
1I#
1K#
0O#
0S#
0U#
1W#
1[#
0]#
1_#
1a#
1c#
1e#
1,#
00#
04#
06#
0:#
0>#
0D#
0J#
1L#
1P#
1T#
1V#
0X#
0\#
1^#
1f#
0h#
0,"
1/"
08"
0;"
0>"
1A"
1G"
0J"
0Y"
0_"
1h"
0q"
1t"
0w"
0"#
1%#
1h!
0i!
0l!
1m!
0n!
1q!
0t!
0v!
0{!
1|!
1~!
0!"
0""
0#"
1&"
0'"
0#!
1"!
0}
0|
0{
1z
1x
0w
0r
0p
1m
0j
1i
0h
0e
1d
#50000
0*
00
1a
1!
09
1X
0#
1>
0?
1Z
0R
16
07
1F
0T
1V
0Y
1]
15
1<
0=
1@
1^
1.
0E
1H
0M
1N
1"
12
0D
1L
1W
0+
1C
0G
0K
0Q
1)
1'
1/
1E!
0D!
1C!
0B!
1A!
0>!
0<!
1;!
1:!
17!
05!
14!
13!
00!
0/!
1.!
1,!
0(!
1'!
1&!
1("
1c!
1b!
1_!
0^!
1]!
1\!
1[!
0Y!
0W!
0V!
1S!
0R!
1Q!
0P!
1M!
0L!
1K!
0J!
0I!
1H!
1##
0~"
0{"
1x"
0v"
1s"
0i"
1g"
0c"
1a"
0X"
0T"
0O"
1H"
1F"
1B"
0@"
1<"
13"
11"
1+"
1)#
1'#
0$#
1u"
1p"
0m"
0j"
1`"
1^"
0["
1U"
1L"
1I"
0E"
0?"
17"
04"
10"
0-"
1*"
01#
13#
15#
07#
19#
0;#
1A#
0C#
1E#
0G#
1M#
1O#
1S#
0W#
0Y#
0[#
1]#
0_#
0e#
0g#
0k#
0,#
0.#
10#
08#
0<#
1>#
1@#
0F#
0H#
1J#
0N#
0T#
0V#
1X#
1\#
0b#
1d#
0f#
1h#
0j#
1,"
0/"
1M"
0\"
0n"
1q"
12"
1>"
0A"
1J"
1b"
0e"
0k"
0}"
0j!
0p!
0r!
1s!
1{!
0~!
1!"
1%"
1n!
0o!
0u!
1z!
0&"
1'"
1#!
0"!
1!!
1{
0z
1w
1v
0q
1o
0n
0l
0k
1j
0f
#60000
0a
0!
1#
1?
1R
0@
0^
0N
0L
1K
0)
0/
1[
1P
0U
11
0(
0%
1J
14
1$
1A
1_
1S
0`
0,
0I
0("
0E!
1D!
19!
16!
04!
01!
0.!
0-!
0*!
1)!
1(!
0&!
0e!
1d!
0c!
1`!
0Z!
1X!
1W!
1U!
0S!
0Q!
1P!
1O!
0N!
1F!
1*#
0o"
1l"
1i"
0g"
0a"
1Z"
1T"
1R"
0K"
1:"
01"
1."
0)"
0)#
1$#
1!#
0|"
0r"
0p"
0f"
0^"
1W"
1N"
1-"
0*"
0+"
0-#
1=#
0?#
0A#
1C#
1G#
0K#
0O#
0Q#
1U#
0a#
1g#
0i#
1l#
1,#
00#
02#
14#
1:#
1<#
1B#
1H#
0L#
0R#
0h#
1j#
1k#
05"
18"
0>"
0G"
1e"
1w"
1(#
1P"
1Y"
0t"
1"#
0,"
1/"
1V"
0h"
0q"
0n!
0q!
1w!
1&"
0'"
1i!
0m!
1v!
1y!
1g!
1l!
1r!
0|!
0!"
1#"
0$"
0#!
1"!
0~
1}
0{
0x
1u
1s
1r
1n
0m
0j
0i
1h
1e
1c
#70000
1a
1!
0?
0R
1@
1N
1L
0A
0_
0S
1I
1*
10
19
0>
05
0<
0.
1M
0"
02
0W
0C
0&
08
1;
1("
1E!
0D!
0C!
0A!
1@!
1>!
0=!
0:!
07!
15!
03!
1/!
0+!
0'!
1&!
0d!
0\!
0X!
0W!
1S!
1R!
1Q!
1N!
0H!
0F!
0*#
0##
1o"
1g"
1c"
1a"
0T"
0R"
0F"
0."
1)#
0'#
0y"
1m"
0`"
1["
0U"
0L"
0C"
1?"
19"
07"
00"
0-"
1*"
1+"
1-#
11#
0=#
0C#
0E#
0G#
1O#
1Q#
1Y#
1i#
0,#
1.#
16#
0>#
1F#
0J#
1N#
1T#
1Z#
0\#
0`#
1b#
1f#
1h#
0j#
0k#
15"
1>"
0P"
0Y"
1k"
1t"
0w"
0"#
02"
08"
1;"
0M"
1\"
1n"
0(#
0/"
0V"
1h"
1q"
0%#
0h!
1n!
1q!
0w!
0&"
0g!
1o!
1u!
0z!
1""
0#"
0%"
0i!
0l!
1m!
1p!
0v!
0y!
1!"
1$"
0"!
0!!
1~
0}
1|
1{
0v
0u
0s
0r
1q
1m
1l
1k
1j
1i
0h
0e
0d
0c
#80000
0a
0!
1?
1R
0@
1A
1_
1S
0I
00
1>
15
1.
12
1C
0;
0#
1^
0P
01
1(
1%
0$
0X
06
17
0F
1T
1D
1+
1G
1Q
13
1:
1B
0("
0E!
1D!
1C!
0@!
1?!
1<!
0;!
1:!
18!
17!
06!
05!
13!
10!
1-!
1*!
0)!
0(!
0&!
1d!
1c!
0]!
1Y!
1X!
1W!
1V!
0U!
0N!
1L!
0K!
1I!
1H!
1G!
1F!
1*#
1&#
1##
1~"
0x"
1v"
0o"
0Z"
1X"
1T"
1R"
1O"
0B"
11"
1."
0)#
0$#
0!#
1|"
1r"
1j"
1`"
0["
0W"
1U"
1Q"
1L"
0I"
1E"
1="
09"
10"
1-"
0*"
0+"
0-#
0/#
01#
03#
17#
09#
1=#
1K#
0M#
0O#
0Q#
0S#
1[#
0g#
0i#
1,#
10#
12#
04#
0:#
0@#
0F#
1J#
1L#
0N#
0P#
0T#
1V#
0X#
0^#
1`#
0f#
0h#
1j#
1k#
05"
1A"
0h"
0;"
1G"
0J"
1M"
1}"
1/"
12"
0D"
1P"
1S"
1V"
0\"
0q"
1w"
0z"
0k!
1l!
0n!
0u!
1w!
1x!
1y!
0}!
1%"
1&"
1j!
1z!
0{!
1|!
0""
0q!
1~!
0$"
1"!
1!!
0~
0|
1z
0y
1x
0w
1v
1u
1t
1s
0q
0m
0j
1h
0g
1f
