EL3111_4_20221111_13220034/0_Prelab/code/tp_4/simulation/qsim/comparator.msim.vcd
$comment
	File created using the following command:
		vcd file comparator.msim.vcd -direction
$end
$date
	Fri Nov 25 15:21:41 2022
$end
$version
	Questa Intel Starter FPGA Edition Version 2021.2
$end
$timescale
	1ps
$end

$scope module comparator_vhd_vec_tst $end
$var wire 1 ! D_1 [31] $end
$var wire 1 " D_1 [30] $end
$var wire 1 # D_1 [29] $end
$var wire 1 $ D_1 [28] $end
$var wire 1 % D_1 [27] $end
$var wire 1 & D_1 [26] $end
$var wire 1 ' D_1 [25] $end
$var wire 1 ( D_1 [24] $end
$var wire 1 ) D_1 [23] $end
$var wire 1 * D_1 [22] $end
$var wire 1 + D_1 [21] $end
$var wire 1 , D_1 [20] $end
$var wire 1 - D_1 [19] $end
$var wire 1 . D_1 [18] $end
$var wire 1 / D_1 [17] $end
$var wire 1 0 D_1 [16] $end
$var wire 1 1 D_1 [15] $end
$var wire 1 2 D_1 [14] $end
$var wire 1 3 D_1 [13] $end
$var wire 1 4 D_1 [12] $end
$var wire 1 5 D_1 [11] $end
$var wire 1 6 D_1 [10] $end
$var wire 1 7 D_1 [9] $end
$var wire 1 8 D_1 [8] $end
$var wire 1 9 D_1 [7] $end
$var wire 1 : D_1 [6] $end
$var wire 1 ; D_1 [5] $end
$var wire 1 < D_1 [4] $end
$var wire 1 = D_1 [3] $end
$var wire 1 > D_1 [2] $end
$var wire 1 ? D_1 [1] $end
$var wire 1 @ D_1 [0] $end
$var wire 1 A D_2 [31] $end
$var wire 1 B D_2 [30] $end
$var wire 1 C D_2 [29] $end
$var wire 1 D D_2 [28] $end
$var wire 1 E D_2 [27] $end
$var wire 1 F D_2 [26] $end
$var wire 1 G D_2 [25] $end
$var wire 1 H D_2 [24] $end
$var wire 1 I D_2 [23] $end
$var wire 1 J D_2 [22] $end
$var wire 1 K D_2 [21] $end
$var wire 1 L D_2 [20] $end
$var wire 1 M D_2 [19] $end
$var wire 1 N D_2 [18] $end
$var wire 1 O D_2 [17] $end
$var wire 1 P D_2 [16] $end
$var wire 1 Q D_2 [15] $end
$var wire 1 R D_2 [14] $end
$var wire 1 S D_2 [13] $end
$var wire 1 T D_2 [12] $end
$var wire 1 U D_2 [11] $end
$var wire 1 V D_2 [10] $end
$var wire 1 W D_2 [9] $end
$var wire 1 X D_2 [8] $end
$var wire 1 Y D_2 [7] $end
$var wire 1 Z D_2 [6] $end
$var wire 1 [ D_2 [5] $end
$var wire 1 \ D_2 [4] $end
$var wire 1 ] D_2 [3] $end
$var wire 1 ^ D_2 [2] $end
$var wire 1 _ D_2 [1] $end
$var wire 1 ` D_2 [0] $end
$var wire 1 a EQ $end

$scope module i1 $end
$var wire 1 b devoe $end
$var wire 1 c ww_devoe $end
$var wire 1 d ww_D_1 [31] $end
$var wire 1 e ww_D_1 [30] $end
$var wire 1 f ww_D_1 [29] $end
$var wire 1 g ww_D_1 [28] $end
$var wire 1 h ww_D_1 [27] $end
$var wire 1 i ww_D_1 [26] $end
$var wire 1 j ww_D_1 [25] $end
$var wire 1 k ww_D_1 [24] $end
$var wire 1 l ww_D_1 [23] $end
$var wire 1 m ww_D_1 [22] $end
$var wire 1 n ww_D_1 [21] $end
$var wire 1 o ww_D_1 [20] $end
$var wire 1 p ww_D_1 [19] $end
$var wire 1 q ww_D_1 [18] $end
$var wire 1 r ww_D_1 [17] $end
$var wire 1 s ww_D_1 [16] $end
$var wire 1 t ww_D_1 [15] $end
$var wire 1 u ww_D_1 [14] $end
$var wire 1 v ww_D_1 [13] $end
$var wire 1 w ww_D_1 [12] $end
$var wire 1 x ww_D_1 [11] $end
$var wire 1 y ww_D_1 [10] $end
$var wire 1 z ww_D_1 [9] $end
$var wire 1 { ww_D_1 [8] $end
$var wire 1 | ww_D_1 [7] $end
$var wire 1 } ww_D_1 [6] $end
$var wire 1 ~ ww_D_1 [5] $end
$var wire 1 !! ww_D_1 [4] $end
$var wire 1 "! ww_D_1 [3] $end
$var wire 1 #! ww_D_1 [2] $end
$var wire 1 $! ww_D_1 [1] $end
$var wire 1 %! ww_D_1 [0] $end
$var wire 1 &! ww_D_2 [31] $end
$var wire 1 '! ww_D_2 [30] $end
$var wire 1 (! ww_D_2 [29] $end
$var wire 1 )! ww_D_2 [28] $end
$var wire 1 *! ww_D_2 [27] $end
$var wire 1 +! ww_D_2 [26] $end
$var wire 1 ,! ww_D_2 [25] $end
$var wire 1 -! ww_D_2 [24] $end
$var wire 1 .! ww_D_2 [23] $end
$var wire 1 /! ww_D_2 [22] $end
$var wire 1 0! ww_D_2 [21] $end
$var wire 1 1! ww_D_2 [20] $end
$var wire 1 2! ww_D_2 [19] $end
$var wire 1 3! ww_D_2 [18] $end
$var wire 1 4! ww_D_2 [17] $end
$var wire 1 5! ww_D_2 [16] $end
$var wire 1 6! ww_D_2 [15] $end
$var wire 1 7! ww_D_2 [14] $end
$var wire 1 8! ww_D_2 [13] $end
$var wire 1 9! ww_D_2 [12] $end
$var wire 1 :! ww_D_2 [11] $end
$var wire 1 ;! ww_D_2 [10] $end
$var wire 1 <! ww_D_2 [9] $end
$var wire 1 =! ww_D_2 [8] $end
$var wire 1 >! ww_D_2 [7] $end
$var wire 1 ?! ww_D_2 [6] $end
$var wire 1 @! ww_D_2 [5] $end
$var wire 1 A! ww_D_2 [4] $end
$var wire 1 B! ww_D_2 [3] $end
$var wire 1 C! ww_D_2 [2] $end
$var wire 1 D! ww_D_2 [1] $end
$var wire 1 E! ww_D_2 [0] $end
$var wire 1 F! ww_EQ $end
$var wire 1 G! \D_2[3]~input_o\ $end
$var wire 1 H! \D_1[3]~input_o\ $end
$var wire 1 I! \D_2[4]~input_o\ $end
$var wire 1 J! \D_1[4]~input_o\ $end
$var wire 1 K! \Equal0~4_combout\ $end
$var wire 1 L! \D_1[6]~input_o\ $end
$var wire 1 M! \D_2[8]~input_o\ $end
$var wire 1 N! \D_2[7]~input_o\ $end
$var wire 1 O! \D_1[7]~input_o\ $end
$var wire 1 P! \D_1[8]~input_o\ $end
$var wire 1 Q! \D_2[6]~input_o\ $end
$var wire 1 R! \Equal0~5_combout\ $end
$var wire 1 S! \D_1[5]~input_o\ $end
$var wire 1 T! \D_2[5]~input_o\ $end
$var wire 1 U! \D_1[2]~input_o\ $end
$var wire 1 V! \D_1[1]~input_o\ $end
$var wire 1 W! \D_2[0]~input_o\ $end
$var wire 1 X! \D_1[0]~input_o\ $end
$var wire 1 Y! \D_2[1]~input_o\ $end
$var wire 1 Z! \D_2[2]~input_o\ $end
$var wire 1 [! \Equal0~3_combout\ $end
$var wire 1 \! \Equal0~6_combout\ $end
$var wire 1 ]! \D_2[10]~input_o\ $end
$var wire 1 ^! \D_2[9]~input_o\ $end
$var wire 1 _! \D_1[9]~input_o\ $end
$var wire 1 `! \D_2[11]~input_o\ $end
$var wire 1 a! \D_1[11]~input_o\ $end
$var wire 1 b! \D_1[10]~input_o\ $end
$var wire 1 c! \Equal0~0_combout\ $end
$var wire 1 d! \D_1[17]~input_o\ $end
$var wire 1 e! \D_2[15]~input_o\ $end
$var wire 1 f! \D_2[17]~input_o\ $end
$var wire 1 g! \D_1[15]~input_o\ $end
$var wire 1 h! \D_1[16]~input_o\ $end
$var wire 1 i! \D_2[16]~input_o\ $end
$var wire 1 j! \Equal0~2_combout\ $end
$var wire 1 k! \D_2[25]~input_o\ $end
$var wire 1 l! \D_2[24]~input_o\ $end
$var wire 1 m! \D_1[24]~input_o\ $end
$var wire 1 n! \D_2[26]~input_o\ $end
$var wire 1 o! \D_1[26]~input_o\ $end
$var wire 1 p! \D_1[25]~input_o\ $end
$var wire 1 q! \Equal0~9_combout\ $end
$var wire 1 r! \D_2[20]~input_o\ $end
$var wire 1 s! \D_1[20]~input_o\ $end
$var wire 1 t! \D_2[19]~input_o\ $end
$var wire 1 u! \D_1[18]~input_o\ $end
$var wire 1 v! \D_1[19]~input_o\ $end
$var wire 1 w! \D_2[18]~input_o\ $end
$var wire 1 x! \Equal0~7_combout\ $end
$var wire 1 y! \D_1[23]~input_o\ $end
$var wire 1 z! \D_1[21]~input_o\ $end
$var wire 1 {! \D_2[21]~input_o\ $end
$var wire 1 |! \D_1[22]~input_o\ $end
$var wire 1 }! \D_2[22]~input_o\ $end
$var wire 1 ~! \D_2[23]~input_o\ $end
$var wire 1 !" \Equal0~8_combout\ $end
$var wire 1 "" \D_2[27]~input_o\ $end
$var wire 1 #" \D_2[29]~input_o\ $end
$var wire 1 $" \D_1[29]~input_o\ $end
$var wire 1 %" \D_1[28]~input_o\ $end
$var wire 1 &" \D_2[28]~input_o\ $end
$var wire 1 '" \D_1[27]~input_o\ $end
$var wire 1 (" \Equal0~10_combout\ $end
$var wire 1 )" \D_2[30]~input_o\ $end
$var wire 1 *" \D_2[31]~input_o\ $end
$var wire 1 +" \D_1[30]~input_o\ $end
$var wire 1 ," \D_1[31]~input_o\ $end
$var wire 1 -" \Equal0~11_combout\ $end
$var wire 1 ." \Equal0~12_combout\ $end
$var wire 1 /" \D_2[12]~input_o\ $end
$var wire 1 0" \D_2[14]~input_o\ $end
$var wire 1 1" \D_1[12]~input_o\ $end
$var wire 1 2" \D_1[13]~input_o\ $end
$var wire 1 3" \D_1[14]~input_o\ $end
$var wire 1 4" \D_2[13]~input_o\ $end
$var wire 1 5" \Equal0~1_combout\ $end
$var wire 1 6" \Equal0~13_combout\ $end
$var wire 1 7" \ALT_INV_D_2[31]~input_o\ $end
$var wire 1 8" \ALT_INV_D_1[31]~input_o\ $end
$var wire 1 9" \ALT_INV_D_2[30]~input_o\ $end
$var wire 1 :" \ALT_INV_D_1[30]~input_o\ $end
$var wire 1 ;" \ALT_INV_D_2[29]~input_o\ $end
$var wire 1 <" \ALT_INV_D_1[29]~input_o\ $end
$var wire 1 =" \ALT_INV_D_2[28]~input_o\ $end
$var wire 1 >" \ALT_INV_D_1[28]~input_o\ $end
$var wire 1 ?" \ALT_INV_D_2[27]~input_o\ $end
$var wire 1 @" \ALT_INV_D_1[27]~input_o\ $end
$var wire 1 A" \ALT_INV_D_2[26]~input_o\ $end
$var wire 1 B" \ALT_INV_D_1[26]~input_o\ $end
$var wire 1 C" \ALT_INV_D_2[25]~input_o\ $end
$var wire 1 D" \ALT_INV_D_1[25]~input_o\ $end
$var wire 1 E" \ALT_INV_D_2[24]~input_o\ $end
$var wire 1 F" \ALT_INV_D_1[24]~input_o\ $end
$var wire 1 G" \ALT_INV_D_2[23]~input_o\ $end
$var wire 1 H" \ALT_INV_D_1[23]~input_o\ $end
$var wire 1 I" \ALT_INV_D_2[22]~input_o\ $end
$var wire 1 J" \ALT_INV_D_1[22]~input_o\ $end
$var wire 1 K" \ALT_INV_D_2[21]~input_o\ $end
$var wire 1 L" \ALT_INV_D_1[21]~input_o\ $end
$var wire 1 M" \ALT_INV_D_2[20]~input_o\ $end
$var wire 1 N" \ALT_INV_D_1[20]~input_o\ $end
$var wire 1 O" \ALT_INV_D_2[19]~input_o\ $end
$var wire 1 P" \ALT_INV_D_1[19]~input_o\ $end
$var wire 1 Q" \ALT_INV_D_2[18]~input_o\ $end
$var wire 1 R" \ALT_INV_D_1[18]~input_o\ $end
$var wire 1 S" \ALT_INV_D_2[8]~input_o\ $end
$var wire 1 T" \ALT_INV_D_1[8]~input_o\ $end
$var wire 1 U" \ALT_INV_D_2[7]~input_o\ $end
$var wire 1 V" \ALT_INV_D_1[7]~input_o\ $end
$var wire 1 W" \ALT_INV_D_2[6]~input_o\ $end
$var wire 1 X" \ALT_INV_D_1[6]~input_o\ $end
$var wire 1 Y" \ALT_INV_D_2[4]~input_o\ $end
$var wire 1 Z" \ALT_INV_D_1[4]~input_o\ $end
$var wire 1 [" \ALT_INV_D_2[3]~input_o\ $end
$var wire 1 \" \ALT_INV_D_1[3]~input_o\ $end
$var wire 1 ]" \ALT_INV_D_2[2]~input_o\ $end
$var wire 1 ^" \ALT_INV_D_1[2]~input_o\ $end
$var wire 1 _" \ALT_INV_D_2[1]~input_o\ $end
$var wire 1 `" \ALT_INV_D_1[1]~input_o\ $end
$var wire 1 a" \ALT_INV_D_2[0]~input_o\ $end
$var wire 1 b" \ALT_INV_D_1[0]~input_o\ $end
$var wire 1 c" \ALT_INV_D_2[5]~input_o\ $end
$var wire 1 d" \ALT_INV_D_1[5]~input_o\ $end
$var wire 1 e" \ALT_INV_D_2[17]~input_o\ $end
$var wire 1 f" \ALT_INV_D_1[17]~input_o\ $end
$var wire 1 g" \ALT_INV_D_2[16]~input_o\ $end
$var wire 1 h" \ALT_INV_D_1[16]~input_o\ $end
$var wire 1 i" \ALT_INV_D_2[15]~input_o\ $end
$var wire 1 j" \ALT_INV_D_1[15]~input_o\ $end
$var wire 1 k" \ALT_INV_D_2[14]~input_o\ $end
$var wire 1 l" \ALT_INV_D_1[14]~input_o\ $end
$var wire 1 m" \ALT_INV_D_2[13]~input_o\ $end
$var wire 1 n" \ALT_INV_D_1[13]~input_o\ $end
$var wire 1 o" \ALT_INV_D_2[12]~input_o\ $end
$var wire 1 p" \ALT_INV_D_1[12]~input_o\ $end
$var wire 1 q" \ALT_INV_D_2[11]~input_o\ $end
$var wire 1 r" \ALT_INV_D_1[11]~input_o\ $end
$var wire 1 s" \ALT_INV_D_2[10]~input_o\ $end
$var wire 1 t" \ALT_INV_D_1[10]~input_o\ $end
$var wire 1 u" \ALT_INV_D_2[9]~input_o\ $end
$var wire 1 v" \ALT_INV_D_1[9]~input_o\ $end
$var wire 1 w" \ALT_INV_Equal0~12_combout\ $end
$var wire 1 x" \ALT_INV_Equal0~11_combout\ $end
$var wire 1 y" \ALT_INV_Equal0~10_combout\ $end
$var wire 1 z" \ALT_INV_Equal0~9_combout\ $end
$var wire 1 {" \ALT_INV_Equal0~8_combout\ $end
$var wire 1 |" \ALT_INV_Equal0~7_combout\ $end
$var wire 1 }" \ALT_INV_Equal0~6_combout\ $end
$var wire 1 ~" \ALT_INV_Equal0~5_combout\ $end
$var wire 1 !# \ALT_INV_Equal0~4_combout\ $end
$var wire 1 "# \ALT_INV_Equal0~3_combout\ $end
$var wire 1 ## \ALT_INV_Equal0~2_combout\ $end
$var wire 1 $# \ALT_INV_Equal0~1_combout\ $end
$var wire 1 %# \ALT_INV_Equal0~0_combout\ $end
$upscope $end
$upscope $end
$enddefinitions $end
#0
$dumpvars
1a
1b
1c
1F!
0G!
0H!
0I!
0J!
1K!
1L!
0M!
1N!
1O!
0P!
1Q!
1R!
0S!
0T!
0U!
1V!
1W!
1X!
1Y!
0Z!
1[!
1\!
1]!
1^!
1_!
0`!
0a!
1b!
1c!
1d!
0e!
1f!
0g!
1h!
1i!
1j!
1k!
1l!
1m!
0n!
0o!
1p!
1q!
1r!
1s!
1t!
1u!
1v!
1w!
1x!
1y!
1z!
1{!
1|!
1}!
1~!
1!"
0""
0#"
0$"
1%"
1&"
0'"
1("
0)"
1*"
0+"
1,"
1-"
1."
0/"
00"
01"
02"
03"
04"
15"
16"
07"
08"
19"
1:"
1;"
1<"
0="
0>"
1?"
1@"
1A"
1B"
0C"
0D"
0E"
0F"
0G"
0H"
0I"
0J"
0K"
0L"
0M"
0N"
0O"
0P"
0Q"
0R"
1S"
1T"
0U"
0V"
0W"
0X"
1Y"
1Z"
1["
1\"
1]"
1^"
0_"
0`"
0a"
0b"
1c"
1d"
0e"
0f"
0g"
0h"
1i"
1j"
1k"
1l"
1m"
1n"
1o"
1p"
1q"
1r"
0s"
0t"
0u"
0v"
0w"
0x"
0y"
0z"
0{"
0|"
0}"
0~"
0!#
0"#
0##
0$#
0%#
1!
0"
0#
1$
0%
0&
1'
1(
1)
1*
1+
1,
1-
1.
1/
10
01
02
03
04
05
16
17
08
19
1:
0;
0<
0=
0>
1?
1@
1A
0B
0C
1D
0E
0F
1G
1H
1I
1J
1K
1L
1M
1N
1O
1P
0Q
0R
0S
0T
0U
1V
1W
0X
1Y
1Z
0[
0\
0]
0^
1_
1`
1d
0e
0f
1g
0h
0i
1j
1k
1l
1m
1n
1o
1p
1q
1r
1s
0t
0u
0v
0w
0x
1y
1z
0{
1|
1}
0~
0!!
0"!
0#!
1$!
1%!
1&!
0'!
0(!
1)!
0*!
0+!
1,!
1-!
1.!
1/!
10!
11!
12!
13!
14!
15!
06!
07!
08!
09!
0:!
1;!
1<!
0=!
1>!
1?!
0@!
0A!
0B!
0C!
1D!
1E!
$end
#10000
1#
1%
0'
0)
0*
0+
0-
0/
00
11
12
13
14
07
18
1<
1=
1>
0?
0@
1B
1F
0G
0H
0I
0L
1S
0W
0Z
1\
1]
1^
0%!
0$!
1#!
1"!
1!!
1{
0z
1w
1v
1u
1t
0s
0r
0p
0n
0m
0l
0j
1h
1f
1C!
1B!
1A!
0?!
0<!
18!
01!
0.!
0-!
0,!
1+!
1'!
1)"
1n!
0k!
0l!
0~!
0r!
14"
0^!
0Q!
1I!
1G!
1Z!
1$"
1'"
0p!
0y!
0|!
0z!
0v!
0d!
0h!
1g!
13"
12"
11"
0_!
1P!
1J!
1H!
1U!
0V!
0X!
09"
0A"
1C"
1E"
1G"
1M"
0m"
1u"
1W"
0Y"
0["
0]"
0<"
0@"
1D"
1H"
1J"
1L"
1P"
1f"
1h"
0j"
0l"
0n"
0p"
1v"
0T"
0Z"
0\"
0^"
1`"
1b"
0j!
0("
0[!
0R!
05"
0x!
0!"
0q!
0-"
1##
1y"
1"#
1~"
1$#
1|"
1{"
1z"
1x"
0\!
0."
06"
1}"
1w"
0F!
0a
#20000
1'
1*
1+
1-
17
0<
0>
1?
1@
0B
0F
1H
1L
1W
1Z
0]
0^
1&
0.
06
1;
1C
1E
0K
0N
0P
1R
1X
0Y
1[
1%!
1$!
0#!
0!!
1~
1z
0y
0q
1p
1n
1m
1j
1i
0C!
0B!
1@!
1?!
0>!
1=!
1<!
17!
05!
03!
11!
00!
1-!
0+!
1*!
1(!
0'!
0)"
1#"
1""
0n!
1l!
0{!
1r!
0w!
0i!
10"
1^!
1M!
0N!
1Q!
1T!
0G!
0Z!
1o!
1p!
1|!
1z!
1v!
0u!
0b!
1_!
1S!
0J!
0U!
1V!
1X!
19"
0;"
0?"
1A"
0E"
1K"
0M"
1Q"
1g"
0k"
0u"
0S"
1U"
0W"
0c"
1["
1]"
0B"
0D"
0J"
0L"
0P"
1R"
1t"
0v"
0d"
1Z"
1^"
0`"
0b"
1[!
0K!
0c!
1x!
1("
1-"
0"#
1!#
1%#
0|"
0y"
0x"
#30000
0'
0*
0-
07
1<
1>
0?
0@
1F
0H
0W
0Z
1^
16
0E
1K
1N
1P
0X
0#
1/
02
04
08
1I
0S
0!
0,
0:
0D
0J
0M
1Q
1T
0_
0%!
0$!
1#!
1!!
0}
0{
0z
1y
0w
0u
1r
0p
0o
0m
0j
0f
0d
0D!
1C!
0?!
0=!
0<!
19!
08!
16!
15!
13!
02!
10!
0/!
1.!
0-!
1+!
0*!
0)!
0&"
0""
1n!
0l!
1~!
0}!
1{!
0t!
1w!
1i!
1e!
04"
1/"
0^!
0M!
0Q!
1Z!
0Y!
0,"
0$"
0p!
0|!
0s!
0v!
1d!
03"
01"
1b!
0_!
0P!
0L!
1J!
1U!
0V!
0X!
1="
1?"
0A"
1E"
0G"
1I"
0K"
1O"
0Q"
0g"
0i"
1m"
0o"
1u"
1S"
1W"
0]"
1_"
18"
1<"
1D"
1J"
1N"
1P"
0f"
1l"
1p"
0t"
1v"
1T"
1X"
0Z"
0^"
1`"
1b"
0-"
0[!
1c!
0x!
0("
1x"
1"#
0%#
1|"
1y"
#40000
1*
1-
17
0<
0>
0F
1H
1W
1Z
06
0P
1#
0/
12
14
18
0I
1,
1D
1M
0Q
0+
1B
0&
1.
0;
0C
1Y
0%
1)
10
01
03
1G
0$
0O
1U
0V
0#!
0!!
0~
1{
1z
0y
1w
0v
1u
0t
1s
0r
1q
1p
1o
0n
1m
1l
0i
0h
0g
1f
1?!
1>!
1<!
0;!
1:!
06!
05!
04!
12!
0.!
1-!
1,!
0+!
1)!
0(!
1'!
1)"
0#"
1&"
0n!
1k!
1l!
0~!
1t!
0f!
0i!
0e!
1`!
0]!
1^!
1N!
1Q!
1$"
0%"
0'"
0o!
1y!
1|!
0z!
1s!
1v!
1u!
0d!
1h!
0g!
13"
02"
11"
0b!
1_!
1P!
0S!
0J!
0U!
09"
1;"
0="
1A"
0C"
0E"
1G"
0O"
1e"
1g"
1i"
0q"
1s"
0u"
0U"
0W"
0<"
1>"
1@"
1B"
0H"
0J"
1L"
0N"
0P"
0R"
1f"
0h"
1j"
0l"
1n"
0p"
1t"
0v"
0T"
1d"
1Z"
1^"
15"
0c!
1x!
0$#
1%#
0|"
#50000
07
0W
0Z
16
1P
08
1I
0D
0M
1Q
0B
1&
0.
1C
11
13
1$
1O
1@
0^
1E
0K
0N
1J
0T
0L
1]
0[
0=
0\
0(
15
09
0A
1%!
0"!
0|
0{
0z
1y
1x
1v
1t
0q
0k
1i
1g
0C!
1B!
0A!
0@!
0?!
0<!
09!
16!
15!
14!
03!
02!
01!
00!
1/!
1.!
1*!
0)!
1(!
0'!
0&!
0*"
0)"
1#"
0&"
1""
1~!
1}!
0{!
0r!
0t!
0w!
1f!
1i!
1e!
0/"
0^!
0Q!
0T!
0I!
1G!
0Z!
1%"
1o!
0m!
0u!
1g!
12"
1a!
1b!
0_!
0P!
0O!
0H!
1X!
17"
19"
0;"
1="
0?"
0G"
0I"
1K"
1M"
1O"
1Q"
0e"
0g"
0i"
1o"
1u"
1W"
1c"
1Y"
0["
1]"
0>"
0B"
1F"
1R"
0j"
0n"
0r"
0t"
1v"
1T"
1V"
1\"
0b"
1[!
05"
0x!
1!"
1-"
0"#
1$#
1|"
0{"
0x"
#60000
17
1W
0I
1M
0Q
1B
01
03
0$
0@
1^
0E
1N
0J
1T
1=
1\
05
0*
0-
1>
1F
1/
04
0,
1+
1V
1'
1X
1:
0R
1"
0`
0%!
1#!
1"!
1}
1z
0x
0w
0v
0t
1r
0p
0o
1n
0m
1j
0g
1e
0E!
1C!
1A!
1=!
1<!
1;!
19!
07!
06!
13!
12!
0/!
0.!
1+!
0*!
1'!
1)"
0""
1n!
0~!
0}!
1t!
1w!
0e!
00"
1/"
1]!
1^!
1M!
1I!
1Z!
0W!
1+"
0%"
1p!
0|!
1z!
0s!
0v!
1d!
0g!
02"
01"
0a!
1_!
1L!
1H!
1U!
0X!
09"
1?"
0A"
1G"
1I"
0O"
0Q"
1i"
1k"
0o"
0s"
0u"
0S"
0Y"
0]"
1a"
0:"
1>"
0D"
1J"
0L"
1N"
1P"
0f"
1j"
1n"
1p"
1r"
0v"
0X"
0\"
0^"
1b"
1j!
0!"
1("
0##
1{"
0y"
#70000
1I
11
1@
1E
0=
15
1*
0/
1,
0X
0:
1R
1`
1Z
0P
18
1D
1.
0C
1K
1L
0]
19
1A
1<
0H
0#
02
1;
0Y
0)
00
0U
1S
1E!
0B!
1?!
0>!
0=!
0:!
18!
17!
05!
11!
10!
1.!
0-!
1*!
1)!
0(!
1&!
1%!
0"!
1!!
1~
0}
1|
1{
1x
0u
1t
0s
0r
1q
1o
1m
0l
0f
0$"
0y!
1|!
1s!
1u!
0d!
0h!
1g!
03"
1a!
1P!
1O!
0L!
1S!
1J!
0H!
1X!
1*"
0#"
1&"
1""
0l!
1~!
1{!
1r!
0i!
10"
14"
0`!
0M!
0N!
1Q!
0G!
1W!
1<"
1H"
0J"
0N"
0R"
1f"
1h"
0j"
1l"
0r"
0T"
0V"
1X"
0d"
0Z"
1\"
0b"
07"
1;"
0="
0?"
1E"
0G"
0K"
0M"
1g"
0k"
0m"
1q"
1S"
1U"
0W"
1["
0a"
1q!
0-"
1K!
0j!
0("
0z"
1x"
0!#
1##
1y"
#80000
0I
01
0E
1=
05
0*
1/
0,
0R
0L
1]
09
1Y
1)
0S
07
0W
0M
0B
1$
0N
1J
0\
0V
0"
06
0&
1%
1B!
0A!
1>!
0<!
0;!
08!
07!
03!
02!
01!
1/!
0.!
0*!
0'!
1"!
0|
0z
0y
0x
0t
1r
0o
0m
1l
0i
1h
1g
0e
0+"
1%"
1'"
0o!
1y!
0|!
0s!
1d!
0g!
0a!
0b!
0_!
0O!
1H!
0)"
0""
0~!
1}!
0r!
0t!
0w!
00"
04"
0]!
0^!
1N!
0I!
1G!
1:"
0>"
0@"
1B"
0H"
1J"
1N"
0f"
1j"
1r"
1t"
1v"
1V"
0\"
19"
1?"
1G"
0I"
1M"
1O"
1Q"
1k"
1m"
1s"
1u"
0U"
1Y"
0["
0K!
1c!
1j!
0q!
1!#
0%#
0##
1z"
#90000
11
1E
0=
1*
1,
1R
0]
0)
1S
1W
0$
1N
0J
1\
1"
0%
0@
1:
0Z
1P
08
1C
0A
12
1U
0^
0T
0F
14
0+
0'
0O
1[
1(
1?
1!
0%!
1$!
0"!
1}
0{
1w
1u
1t
1o
0n
1m
0l
1k
0j
0h
0g
1e
1d
0C!
0B!
1A!
1@!
0?!
1<!
1:!
09!
18!
17!
15!
04!
13!
0/!
0+!
1*!
1(!
0&!
0*"
1#"
1""
0n!
0}!
1w!
0f!
1i!
10"
14"
0/"
1`!
1^!
0Q!
1T!
1I!
0G!
0Z!
1,"
1+"
0%"
0'"
0p!
1m!
0y!
1|!
0z!
1s!
1g!
13"
11"
0P!
1L!
0H!
1V!
0X!
17"
0;"
0?"
1A"
1I"
0Q"
1e"
0g"
0k"
0m"
1o"
0q"
0u"
1W"
0c"
0Y"
1["
1]"
08"
0:"
1>"
1@"
1D"
0F"
1H"
0J"
1L"
0N"
0j"
0l"
0p"
1T"
0X"
1\"
0`"
1b"
0[!
1K!
0c!
0j!
1"#
0!#
1%#
1##
#100000
0*
0R
1]
1)
0S
0N
0"
0:
1A
02
1'
1O
0(
0?
1I
0/
17
1M
1V
16
1&
1X
0`
0D
0.
0K
0;
10
1Q
1-
0$!
0~
0}
1z
1y
0u
1s
0r
0q
1p
0m
1l
0k
1j
1i
0e
0E!
1B!
1=!
1;!
08!
07!
16!
14!
03!
12!
00!
1.!
0)!
1&!
1*"
0&"
1~!
0{!
1t!
0w!
1f!
1e!
00"
04"
1]!
1M!
1G!
0W!
0+"
1o!
1p!
0m!
1y!
0|!
1v!
0u!
0d!
1h!
03"
1b!
1_!
0L!
0S!
0V!
07"
1="
0G"
1K"
0O"
1Q"
0e"
0i"
1k"
1m"
0s"
0S"
0["
1a"
1:"
0B"
0D"
1F"
0H"
1J"
0P"
1R"
1f"
0h"
1l"
0t"
0v"
1X"
1d"
1`"
0K!
1!"
1-"
1!#
0{"
0x"
#110000
1N
1:
0A
1/
0M
06
0X
1`
1D
1.
1K
1;
0Q
0E
1=
0,
1J
1@
1Z
0P
18
0C
1^
1T
1F
04
0[
19
1B
1H
13
0G
1E!
1C!
0@!
1?!
0=!
19!
06!
05!
13!
02!
10!
1/!
1-!
0,!
1+!
0*!
1)!
0(!
1'!
0&!
1%!
1"!
1~
1}
1|
1{
0y
0w
1v
1r
1q
0o
0s!
1u!
1d!
12"
01"
0b!
1P!
1O!
1L!
1S!
1H!
1X!
0*"
1)"
0#"
1&"
0""
1n!
0k!
1l!
1}!
1{!
0t!
1w!
0i!
0e!
1/"
0M!
1Q!
0T!
1Z!
1W!
1N"
0R"
0f"
0n"
1p"
1t"
0T"
0V"
0X"
0d"
0\"
0b"
17"
09"
1;"
0="
1?"
0A"
1C"
0E"
0I"
0K"
1O"
0Q"
1g"
1i"
0o"
1S"
0W"
1c"
0]"
0a"
0!"
0-"
1[!
1K!
1{"
1x"
0"#
0!#
#120000
0N
0:
1A
16
0D
0K
1E
0=
1,
0J
0@
1P
1C
0^
0F
1[
0H
1G
1*
1S
1"
1(
1?
0V
0&
00
1$
1%
0U
1+
0!
0Y
0<
0>
0C!
1@!
0>!
0;!
0:!
18!
15!
03!
00!
0/!
0-!
1,!
0+!
1*!
0)!
1(!
1&!
0%!
1$!
0#!
0"!
0!!
0}
1y
0s
1o
1n
1m
1k
0i
1h
1g
1e
0d
0,"
1+"
1%"
1'"
0o!
1m!
1|!
1z!
1s!
0h!
1b!
0L!
0J!
0H!
0U!
1V!
0X!
1*"
1#"
0&"
1""
0n!
1k!
0l!
0}!
0{!
0w!
1i!
14"
0`!
0]!
0N!
1T!
0Z!
18"
0:"
0>"
0@"
1B"
0F"
0J"
0L"
0N"
1h"
0t"
1X"
1Z"
1\"
1^"
0`"
1b"
07"
0;"
1="
0?"
1A"
0C"
1E"
1I"
1K"
1Q"
0g"
0m"
1q"
1s"
1U"
0c"
1]"
0[!
0K!
1"#
1!#
#130000
1N
06
1D
1K
0E
1@
1H
0S
0(
1U
0+
1<
1>
0/
0`
0Z
0B
12
07
0-
01
0\
1_
0E!
1D!
0A!
0?!
1:!
08!
13!
10!
1-!
0*!
1)!
0'!
1%!
1#!
1!!
0z
0y
1u
0t
0r
0p
0n
0k
0m!
0z!
0v!
0d!
0g!
13"
0b!
0_!
1J!
1U!
1X!
0)"
1&"
0""
1l!
1{!
1w!
04"
1`!
0Q!
0I!
1Y!
0W!
1F"
1L"
1P"
1f"
1j"
0l"
1t"
1v"
0Z"
0^"
0b"
19"
0="
1?"
0E"
0K"
0Q"
1m"
0q"
1W"
1Y"
0_"
1a"
